ISO-10303-21;
HEADER;
FILE_DESCRIPTION(('STEP AP214'),'1');
FILE_NAME('BR-76231M-02.stp','2020-01-10T22:56:20',(' '),(' '),'Spatial InterOp 3D',' ',' ');
FILE_SCHEMA(('AUTOMOTIVE_DESIGN { 1 0 10303 214 1 1 1 1 }'));
ENDSEC;
DATA;
#1=PRODUCT_DEFINITION_CONTEXT('',#17,'design');
#2=APPLICATION_PROTOCOL_DEFINITION('INTERNATIONAL STANDARD','automotive_design',1994,#17);
#3=PRODUCT_CATEGORY_RELATIONSHIP('NONE','NONE',#18,#19);
#4=SHAPE_DEFINITION_REPRESENTATION(#20,#21);
#5=PRODUCT_DEFINITION_CONTEXT('',#22,'design');
#6=APPLICATION_PROTOCOL_DEFINITION('INTERNATIONAL STANDARD','automotive_design',1994,#22);
#7=PRODUCT_CATEGORY_RELATIONSHIP('NONE','NONE',#23,#24);
#8=CONTEXT_DEPENDENT_SHAPE_REPRESENTATION(#25,#26);
#9=SHAPE_DEFINITION_REPRESENTATION(#27,#28);
#10=SHAPE_REPRESENTATION_RELATIONSHIP('NONE','NONE',#28,#29);
#11=CONTEXT_DEPENDENT_SHAPE_REPRESENTATION(#30,#31);
#12=MECHANICAL_DESIGN_GEOMETRIC_PRESENTATION_REPRESENTATION(' ',(#32,#33,#34,#35,#36,#37,#38,#39,#40,#41,#42,#43,#44,#45,#46,#47,#48,#49,#50,#51,#52,#53,#54,#55,#56,#57,#58,#59,#60,#61,#62,#63,#64,#65,#66,#67,#68,#69,#70),#13);
#13= (GEOMETRIC_REPRESENTATION_CONTEXT(3)GLOBAL_UNCERTAINTY_ASSIGNED_CONTEXT((#73))GLOBAL_UNIT_ASSIGNED_CONTEXT((#75,#76,#77))REPRESENTATION_CONTEXT('NONE','WORKSPACE'));
#17=APPLICATION_CONTEXT(' ');
#18=PRODUCT_CATEGORY('part','NONE');
#19=PRODUCT_RELATED_PRODUCT_CATEGORY('detail',' ',(#79));
#20=PRODUCT_DEFINITION_SHAPE('NONE','NONE',#80);
#21=SHAPE_REPRESENTATION('',(#81,#82,#83),#84);
#22=APPLICATION_CONTEXT(' ');
#23=PRODUCT_CATEGORY('part','NONE');
#24=PRODUCT_RELATED_PRODUCT_CATEGORY('detail',' ',(#85));
#25=(REPRESENTATION_RELATIONSHIP('','',#28,#21)REPRESENTATION_RELATIONSHIP_WITH_TRANSFORMATION(#88)SHAPE_REPRESENTATION_RELATIONSHIP());
#26=PRODUCT_DEFINITION_SHAPE('NAUO-PROD-DEF','NAUO-PROD-DEF',#90);
#27=PRODUCT_DEFINITION_SHAPE('NONE','NONE',#91);
#28=SHAPE_REPRESENTATION('Part1',(#81),#84);
#29=ADVANCED_BREP_SHAPE_REPRESENTATION('Part1',(#92),#13);
#30=(REPRESENTATION_RELATIONSHIP('','',#28,#21)REPRESENTATION_RELATIONSHIP_WITH_TRANSFORMATION(#95)SHAPE_REPRESENTATION_RELATIONSHIP());
#31=PRODUCT_DEFINITION_SHAPE('NAUO-PROD-DEF','NAUO-PROD-DEF',#97);
#32=STYLED_ITEM('',(#98),#99);
#33=STYLED_ITEM('',(#100),#101);
#34=STYLED_ITEM('',(#102),#103);
#35=STYLED_ITEM('',(#104),#105);
#36=STYLED_ITEM('',(#106),#107);
#37=STYLED_ITEM('',(#108),#109);
#38=STYLED_ITEM('',(#110),#111);
#39=STYLED_ITEM('',(#112),#113);
#40=STYLED_ITEM('',(#114),#115);
#41=STYLED_ITEM('',(#116),#117);
#42=STYLED_ITEM('',(#118),#119);
#43=STYLED_ITEM('',(#120),#121);
#44=STYLED_ITEM('',(#122),#123);
#45=STYLED_ITEM('',(#124),#125);
#46=STYLED_ITEM('',(#126),#127);
#47=STYLED_ITEM('',(#128),#129);
#48=STYLED_ITEM('',(#130),#131);
#49=STYLED_ITEM('',(#132),#133);
#50=STYLED_ITEM('',(#134),#135);
#51=STYLED_ITEM('',(#136),#137);
#52=STYLED_ITEM('',(#138),#139);
#53=STYLED_ITEM('',(#140),#141);
#54=STYLED_ITEM('',(#142),#143);
#55=STYLED_ITEM('',(#144),#145);
#56=STYLED_ITEM('',(#146),#147);
#57=STYLED_ITEM('',(#148),#149);
#58=STYLED_ITEM('',(#150),#151);
#59=STYLED_ITEM('',(#152),#153);
#60=STYLED_ITEM('',(#154),#155);
#61=STYLED_ITEM('',(#156),#157);
#62=STYLED_ITEM('',(#158),#159);
#63=STYLED_ITEM('',(#160),#161);
#64=STYLED_ITEM('',(#162),#163);
#65=STYLED_ITEM('',(#164),#165);
#66=STYLED_ITEM('',(#166),#167);
#67=STYLED_ITEM('',(#168),#169);
#68=STYLED_ITEM('',(#170),#171);
#69=STYLED_ITEM('',(#172),#173);
#70=STYLED_ITEM('',(#174),#175);
#73=UNCERTAINTY_MEASURE_WITH_UNIT(LENGTH_MEASURE(0.001),#75,'','');
#75= (CONVERSION_BASED_UNIT('MILLIMETRE',#178)LENGTH_UNIT()NAMED_UNIT(#181));
#76= (NAMED_UNIT(#183)PLANE_ANGLE_UNIT()SI_UNIT($,.RADIAN.));
#77= (NAMED_UNIT(#183)SOLID_ANGLE_UNIT()SI_UNIT($,.STERADIAN.));
#79=PRODUCT('','','PART--DESC',(#189));
#80=PRODUCT_DEFINITION('','NONE',#190,#1);
#81=AXIS2_PLACEMENT_3D('',#191,#192,#193);
#82=AXIS2_PLACEMENT_3D('',#194,#195,#196);
#83=AXIS2_PLACEMENT_3D('',#197,#198,#199);
#84= (GEOMETRIC_REPRESENTATION_CONTEXT(3)GLOBAL_UNCERTAINTY_ASSIGNED_CONTEXT((#202))GLOBAL_UNIT_ASSIGNED_CONTEXT((#204,#205,#206))REPRESENTATION_CONTEXT('NONE','WORKSPACE'));
#85=PRODUCT('Part1','Part1','PART-Part1-DESC',(#208));
#88=ITEM_DEFINED_TRANSFORMATION('','',#81,#82);
#90=NEXT_ASSEMBLY_USAGE_OCCURRENCE('Part1','Part1','Part1',#80,#91,$);
#91=PRODUCT_DEFINITION('Part1','Part1',#209,#5);
#92=MANIFOLD_SOLID_BREP('Part1',#210);
#95=ITEM_DEFINED_TRANSFORMATION('','',#81,#83);
#97=NEXT_ASSEMBLY_USAGE_OCCURRENCE('Part1','Part1','Part1',#80,#91,$);
#98=PRESENTATION_STYLE_ASSIGNMENT((#211));
#99=ADVANCED_FACE('',(#212,#213),#214,.F.);
#100=PRESENTATION_STYLE_ASSIGNMENT((#215));
#101=ADVANCED_FACE('',(#216,#217),#218,.T.);
#102=PRESENTATION_STYLE_ASSIGNMENT((#219));
#103=ADVANCED_FACE('',(#220),#221,.T.);
#104=PRESENTATION_STYLE_ASSIGNMENT((#222));
#105=ADVANCED_FACE('',(#223),#224,.T.);
#106=PRESENTATION_STYLE_ASSIGNMENT((#225));
#107=ADVANCED_FACE('',(#226),#227,.T.);
#108=PRESENTATION_STYLE_ASSIGNMENT((#228));
#109=ADVANCED_FACE('',(#229),#230,.F.);
#110=PRESENTATION_STYLE_ASSIGNMENT((#231));
#111=ADVANCED_FACE('',(#232,#233),#234,.T.);
#112=PRESENTATION_STYLE_ASSIGNMENT((#235));
#113=ADVANCED_FACE('',(#236),#237,.T.);
#114=PRESENTATION_STYLE_ASSIGNMENT((#238));
#115=ADVANCED_FACE('',(#239),#240,.F.);
#116=PRESENTATION_STYLE_ASSIGNMENT((#241));
#117=ADVANCED_FACE('',(#242),#243,.F.);
#118=PRESENTATION_STYLE_ASSIGNMENT((#244));
#119=ADVANCED_FACE('',(#245),#246,.F.);
#120=PRESENTATION_STYLE_ASSIGNMENT((#247));
#121=ADVANCED_FACE('',(#248),#249,.F.);
#122=PRESENTATION_STYLE_ASSIGNMENT((#250));
#123=ADVANCED_FACE('',(#251,#252),#253,.T.);
#124=PRESENTATION_STYLE_ASSIGNMENT((#254));
#125=ADVANCED_FACE('',(#255,#256),#257,.T.);
#126=PRESENTATION_STYLE_ASSIGNMENT((#258));
#127=ADVANCED_FACE('',(#259),#260,.T.);
#128=PRESENTATION_STYLE_ASSIGNMENT((#261));
#129=ADVANCED_FACE('',(#262),#263,.T.);
#130=PRESENTATION_STYLE_ASSIGNMENT((#264));
#131=ADVANCED_FACE('',(#265),#266,.T.);
#132=PRESENTATION_STYLE_ASSIGNMENT((#267));
#133=ADVANCED_FACE('',(#268),#269,.T.);
#134=PRESENTATION_STYLE_ASSIGNMENT((#270));
#135=ADVANCED_FACE('',(#271),#272,.F.);
#136=PRESENTATION_STYLE_ASSIGNMENT((#273));
#137=ADVANCED_FACE('',(#274),#275,.T.);
#138=PRESENTATION_STYLE_ASSIGNMENT((#276));
#139=ADVANCED_FACE('',(#277),#278,.T.);
#140=PRESENTATION_STYLE_ASSIGNMENT((#279));
#141=ADVANCED_FACE('',(#280),#281,.T.);
#142=PRESENTATION_STYLE_ASSIGNMENT((#282));
#143=ADVANCED_FACE('',(#283),#284,.T.);
#144=PRESENTATION_STYLE_ASSIGNMENT((#285));
#145=ADVANCED_FACE('',(#286),#287,.F.);
#146=PRESENTATION_STYLE_ASSIGNMENT((#288));
#147=ADVANCED_FACE('',(#289),#290,.F.);
#148=PRESENTATION_STYLE_ASSIGNMENT((#291));
#149=ADVANCED_FACE('',(#292),#293,.F.);
#150=PRESENTATION_STYLE_ASSIGNMENT((#294));
#151=ADVANCED_FACE('',(#295),#296,.F.);
#152=PRESENTATION_STYLE_ASSIGNMENT((#297));
#153=ADVANCED_FACE('',(#298),#299,.F.);
#154=PRESENTATION_STYLE_ASSIGNMENT((#300));
#155=ADVANCED_FACE('',(#301),#302,.T.);
#156=PRESENTATION_STYLE_ASSIGNMENT((#303));
#157=ADVANCED_FACE('',(#304),#305,.T.);
#158=PRESENTATION_STYLE_ASSIGNMENT((#306));
#159=ADVANCED_FACE('',(#307),#308,.F.);
#160=PRESENTATION_STYLE_ASSIGNMENT((#309));
#161=ADVANCED_FACE('',(#310,#311),#312,.T.);
#162=PRESENTATION_STYLE_ASSIGNMENT((#313));
#163=ADVANCED_FACE('',(#314),#315,.T.);
#164=PRESENTATION_STYLE_ASSIGNMENT((#316));
#165=ADVANCED_FACE('',(#317),#318,.T.);
#166=PRESENTATION_STYLE_ASSIGNMENT((#319));
#167=ADVANCED_FACE('',(#320),#321,.T.);
#168=PRESENTATION_STYLE_ASSIGNMENT((#322));
#169=ADVANCED_FACE('',(#323),#324,.T.);
#170=PRESENTATION_STYLE_ASSIGNMENT((#325));
#171=ADVANCED_FACE('',(#326),#327,.T.);
#172=PRESENTATION_STYLE_ASSIGNMENT((#328));
#173=ADVANCED_FACE('',(#329),#330,.F.);
#174=PRESENTATION_STYLE_ASSIGNMENT((#331));
#175=ADVANCED_FACE('',(#332),#333,.F.);
#178=LENGTH_MEASURE_WITH_UNIT(LENGTH_MEASURE(1.0),#334);
#181=DIMENSIONAL_EXPONENTS(1.0,0.0,0.0,0.0,0.0,0.0,0.0);
#183=DIMENSIONAL_EXPONENTS(0.0,0.0,0.0,0.0,0.0,0.0,0.0);
#189=PRODUCT_CONTEXT('',#17,'mechanical');
#190=PRODUCT_DEFINITION_FORMATION_WITH_SPECIFIED_SOURCE(' ','NONE',#79,.NOT_KNOWN.);
#191=CARTESIAN_POINT('',(0.0,0.0,0.0));
#192=DIRECTION('',(0.0,0.0,1.0));
#193=DIRECTION('',(1.0,0.0,0.0));
#194=CARTESIAN_POINT('',(0.0,0.0,0.0));
#195=DIRECTION('',(0.0,0.0,1.0));
#196=DIRECTION('',(1.0,0.0,0.0));
#197=CARTESIAN_POINT('',(-7.62,0.0,0.0));
#198=DIRECTION('',(0.0,0.0,1.0));
#199=DIRECTION('',(1.0,0.0,0.0));
#202=UNCERTAINTY_MEASURE_WITH_UNIT(LENGTH_MEASURE(0.001),#204,'','');
#204= (CONVERSION_BASED_UNIT('MILLIMETRE',#337)LENGTH_UNIT()NAMED_UNIT(#340));
#205= (NAMED_UNIT(#342)PLANE_ANGLE_UNIT()SI_UNIT($,.RADIAN.));
#206= (NAMED_UNIT(#342)SOLID_ANGLE_UNIT()SI_UNIT($,.STERADIAN.));
#208=PRODUCT_CONTEXT('',#22,'mechanical');
#209=PRODUCT_DEFINITION_FORMATION_WITH_SPECIFIED_SOURCE(' ','NONE',#85,.NOT_KNOWN.);
#210=CLOSED_SHELL('',(#99,#101,#103,#105,#107,#109,#111,#113,#115,#117,#119,#121,#123,#125,#127,#129,#131,#133,#135,#137,#139,#141,#143,#145,#147,#149,#151,#153,#155,#157,#159,#161,#163,#165,#167,#169,#171,#173,#175));
#211=SURFACE_STYLE_USAGE(.BOTH.,#348);
#212=FACE_OUTER_BOUND('',#349,.T.);
#213=FACE_BOUND('',#350,.T.);
#214=PLANE('',#351);
#215=SURFACE_STYLE_USAGE(.BOTH.,#352);
#216=FACE_OUTER_BOUND('',#353,.T.);
#217=FACE_BOUND('',#354,.T.);
#218=PLANE('',#355);
#219=SURFACE_STYLE_USAGE(.BOTH.,#356);
#220=FACE_OUTER_BOUND('',#357,.T.);
#221=PLANE('',#358);
#222=SURFACE_STYLE_USAGE(.BOTH.,#359);
#223=FACE_OUTER_BOUND('',#360,.T.);
#224=PLANE('',#361);
#225=SURFACE_STYLE_USAGE(.BOTH.,#362);
#226=FACE_OUTER_BOUND('',#363,.T.);
#227=PLANE('',#364);
#228=SURFACE_STYLE_USAGE(.BOTH.,#365);
#229=FACE_OUTER_BOUND('',#366,.T.);
#230=PLANE('',#367);
#231=SURFACE_STYLE_USAGE(.BOTH.,#368);
#232=FACE_OUTER_BOUND('',#369,.T.);
#233=FACE_BOUND('',#370,.T.);
#234=PLANE('',#371);
#235=SURFACE_STYLE_USAGE(.BOTH.,#372);
#236=FACE_OUTER_BOUND('',#373,.T.);
#237=PLANE('',#374);
#238=SURFACE_STYLE_USAGE(.BOTH.,#375);
#239=FACE_OUTER_BOUND('',#376,.T.);
#240=PLANE('',#377);
#241=SURFACE_STYLE_USAGE(.BOTH.,#378);
#242=FACE_OUTER_BOUND('',#379,.T.);
#243=PLANE('',#380);
#244=SURFACE_STYLE_USAGE(.BOTH.,#381);
#245=FACE_OUTER_BOUND('',#382,.T.);
#246=PLANE('',#383);
#247=SURFACE_STYLE_USAGE(.BOTH.,#384);
#248=FACE_OUTER_BOUND('',#385,.T.);
#249=PLANE('',#386);
#250=SURFACE_STYLE_USAGE(.BOTH.,#387);
#251=FACE_BOUND('',#388,.T.);
#252=FACE_OUTER_BOUND('',#389,.T.);
#253=PLANE('',#390);
#254=SURFACE_STYLE_USAGE(.BOTH.,#391);
#255=FACE_OUTER_BOUND('',#392,.T.);
#256=FACE_OUTER_BOUND('',#393,.T.);
#257=CYLINDRICAL_SURFACE('',#394,2.5);
#258=SURFACE_STYLE_USAGE(.BOTH.,#395);
#259=FACE_OUTER_BOUND('',#396,.T.);
#260=PLANE('',#397);
#261=SURFACE_STYLE_USAGE(.BOTH.,#398);
#262=FACE_OUTER_BOUND('',#399,.T.);
#263=PLANE('',#400);
#264=SURFACE_STYLE_USAGE(.BOTH.,#401);
#265=FACE_OUTER_BOUND('',#402,.T.);
#266=PLANE('',#403);
#267=SURFACE_STYLE_USAGE(.BOTH.,#404);
#268=FACE_OUTER_BOUND('',#405,.T.);
#269=PLANE('',#406);
#270=SURFACE_STYLE_USAGE(.BOTH.,#407);
#271=FACE_OUTER_BOUND('',#408,.T.);
#272=PLANE('',#409);
#273=SURFACE_STYLE_USAGE(.BOTH.,#410);
#274=FACE_OUTER_BOUND('',#411,.T.);
#275=PLANE('',#412);
#276=SURFACE_STYLE_USAGE(.BOTH.,#413);
#277=FACE_OUTER_BOUND('',#414,.T.);
#278=PLANE('',#415);
#279=SURFACE_STYLE_USAGE(.BOTH.,#416);
#280=FACE_OUTER_BOUND('',#417,.T.);
#281=PLANE('',#418);
#282=SURFACE_STYLE_USAGE(.BOTH.,#419);
#283=FACE_OUTER_BOUND('',#420,.T.);
#284=PLANE('',#421);
#285=SURFACE_STYLE_USAGE(.BOTH.,#422);
#286=FACE_OUTER_BOUND('',#423,.T.);
#287=PLANE('',#424);
#288=SURFACE_STYLE_USAGE(.BOTH.,#425);
#289=FACE_OUTER_BOUND('',#426,.T.);
#290=PLANE('',#427);
#291=SURFACE_STYLE_USAGE(.BOTH.,#428);
#292=FACE_OUTER_BOUND('',#429,.T.);
#293=PLANE('',#430);
#294=SURFACE_STYLE_USAGE(.BOTH.,#431);
#295=FACE_OUTER_BOUND('',#432,.T.);
#296=PLANE('',#433);
#297=SURFACE_STYLE_USAGE(.BOTH.,#434);
#298=FACE_OUTER_BOUND('',#435,.T.);
#299=PLANE('',#436);
#300=SURFACE_STYLE_USAGE(.BOTH.,#437);
#301=FACE_OUTER_BOUND('',#438,.T.);
#302=CYLINDRICAL_SURFACE('',#439,0.6);
#303=SURFACE_STYLE_USAGE(.BOTH.,#440);
#304=FACE_OUTER_BOUND('',#441,.T.);
#305=PLANE('',#442);
#306=SURFACE_STYLE_USAGE(.BOTH.,#443);
#307=FACE_OUTER_BOUND('',#444,.T.);
#308=PLANE('',#445);
#309=SURFACE_STYLE_USAGE(.BOTH.,#446);
#310=FACE_OUTER_BOUND('',#447,.T.);
#311=FACE_OUTER_BOUND('',#448,.T.);
#312=TOROIDAL_SURFACE('',#449,2.0,0.5);
#313=SURFACE_STYLE_USAGE(.BOTH.,#450);
#314=FACE_OUTER_BOUND('',#451,.T.);
#315=PLANE('',#452);
#316=SURFACE_STYLE_USAGE(.BOTH.,#453);
#317=FACE_OUTER_BOUND('',#454,.T.);
#318=PLANE('',#455);
#319=SURFACE_STYLE_USAGE(.BOTH.,#456);
#320=FACE_OUTER_BOUND('',#457,.T.);
#321=PLANE('',#458);
#322=SURFACE_STYLE_USAGE(.BOTH.,#459);
#323=FACE_OUTER_BOUND('',#460,.T.);
#324=CYLINDRICAL_SURFACE('',#461,1.0);
#325=SURFACE_STYLE_USAGE(.BOTH.,#462);
#326=FACE_OUTER_BOUND('',#463,.T.);
#327=CYLINDRICAL_SURFACE('',#464,1.0);
#328=SURFACE_STYLE_USAGE(.BOTH.,#465);
#329=FACE_OUTER_BOUND('',#466,.T.);
#330=PLANE('',#467);
#331=SURFACE_STYLE_USAGE(.BOTH.,#468);
#332=FACE_OUTER_BOUND('',#469,.T.);
#333=PLANE('',#470);
#334= (NAMED_UNIT(#181)LENGTH_UNIT()SI_UNIT(.MILLI.,.METRE.));
#337=LENGTH_MEASURE_WITH_UNIT(LENGTH_MEASURE(1.0),#472);
#340=DIMENSIONAL_EXPONENTS(1.0,0.0,0.0,0.0,0.0,0.0,0.0);
#342=DIMENSIONAL_EXPONENTS(0.0,0.0,0.0,0.0,0.0,0.0,0.0);
#348=SURFACE_SIDE_STYLE('',(#473));
#349=EDGE_LOOP('',(#474,#475,#476,#477));
#350=EDGE_LOOP('',(#478,#479,#480,#481));
#351=AXIS2_PLACEMENT_3D('',#482,#483,#484);
#352=SURFACE_SIDE_STYLE('',(#485));
#353=EDGE_LOOP('',(#486));
#354=EDGE_LOOP('',(#487,#488,#489,#490,#491,#492,#493,#494,#495,#496,#497,#498));
#355=AXIS2_PLACEMENT_3D('',#499,#500,#501);
#356=SURFACE_SIDE_STYLE('',(#502));
#357=EDGE_LOOP('',(#503,#504,#505,#506,#507,#508));
#358=AXIS2_PLACEMENT_3D('',#509,#510,#511);
#359=SURFACE_SIDE_STYLE('',(#512));
#360=EDGE_LOOP('',(#513,#514,#515,#516,#517,#518));
#361=AXIS2_PLACEMENT_3D('',#519,#520,#521);
#362=SURFACE_SIDE_STYLE('',(#522));
#363=EDGE_LOOP('',(#523,#524,#525,#526,#527,#528,#529,#530));
#364=AXIS2_PLACEMENT_3D('',#531,#532,#533);
#365=SURFACE_SIDE_STYLE('',(#534));
#366=EDGE_LOOP('',(#535,#536,#537,#538));
#367=AXIS2_PLACEMENT_3D('',#539,#540,#541);
#368=SURFACE_SIDE_STYLE('',(#542));
#369=EDGE_LOOP('',(#543,#544,#545,#546));
#370=EDGE_LOOP('',(#547,#548,#549,#550));
#371=AXIS2_PLACEMENT_3D('',#551,#552,#553);
#372=SURFACE_SIDE_STYLE('',(#554));
#373=EDGE_LOOP('',(#555,#556,#557,#558));
#374=AXIS2_PLACEMENT_3D('',#559,#560,#561);
#375=SURFACE_SIDE_STYLE('',(#562));
#376=EDGE_LOOP('',(#563,#564,#565,#566));
#377=AXIS2_PLACEMENT_3D('',#567,#568,#569);
#378=SURFACE_SIDE_STYLE('',(#570));
#379=EDGE_LOOP('',(#571,#572,#573,#574));
#380=AXIS2_PLACEMENT_3D('',#575,#576,#577);
#381=SURFACE_SIDE_STYLE('',(#578));
#382=EDGE_LOOP('',(#579,#580,#581,#582));
#383=AXIS2_PLACEMENT_3D('',#583,#584,#585);
#384=SURFACE_SIDE_STYLE('',(#586));
#385=EDGE_LOOP('',(#587,#588,#589,#590));
#386=AXIS2_PLACEMENT_3D('',#591,#592,#593);
#387=SURFACE_SIDE_STYLE('',(#594));
#388=EDGE_LOOP('',(#595));
#389=EDGE_LOOP('',(#596,#597,#598,#599));
#390=AXIS2_PLACEMENT_3D('',#600,#601,#602);
#391=SURFACE_SIDE_STYLE('',(#603));
#392=EDGE_LOOP('',(#604));
#393=EDGE_LOOP('',(#605));
#394=AXIS2_PLACEMENT_3D('',#606,#607,#608);
#395=SURFACE_SIDE_STYLE('',(#609));
#396=EDGE_LOOP('',(#610,#611,#612,#613));
#397=AXIS2_PLACEMENT_3D('',#614,#615,#616);
#398=SURFACE_SIDE_STYLE('',(#617));
#399=EDGE_LOOP('',(#618,#619,#620,#621));
#400=AXIS2_PLACEMENT_3D('',#622,#623,#624);
#401=SURFACE_SIDE_STYLE('',(#625));
#402=EDGE_LOOP('',(#626,#627,#628,#629));
#403=AXIS2_PLACEMENT_3D('',#630,#631,#632);
#404=SURFACE_SIDE_STYLE('',(#633));
#405=EDGE_LOOP('',(#634,#635,#636,#637));
#406=AXIS2_PLACEMENT_3D('',#638,#639,#640);
#407=SURFACE_SIDE_STYLE('',(#641));
#408=EDGE_LOOP('',(#642,#643,#644,#645,#646,#647,#648,#649,#650,#651,#652,#653));
#409=AXIS2_PLACEMENT_3D('',#654,#655,#656);
#410=SURFACE_SIDE_STYLE('',(#657));
#411=EDGE_LOOP('',(#658,#659,#660,#661));
#412=AXIS2_PLACEMENT_3D('',#662,#663,#664);
#413=SURFACE_SIDE_STYLE('',(#665));
#414=EDGE_LOOP('',(#666,#667,#668,#669));
#415=AXIS2_PLACEMENT_3D('',#670,#671,#672);
#416=SURFACE_SIDE_STYLE('',(#673));
#417=EDGE_LOOP('',(#674,#675,#676,#677));
#418=AXIS2_PLACEMENT_3D('',#678,#679,#680);
#419=SURFACE_SIDE_STYLE('',(#681));
#420=EDGE_LOOP('',(#682,#683,#684,#685));
#421=AXIS2_PLACEMENT_3D('',#686,#687,#688);
#422=SURFACE_SIDE_STYLE('',(#689));
#423=EDGE_LOOP('',(#690,#691,#692,#693));
#424=AXIS2_PLACEMENT_3D('',#694,#695,#696);
#425=SURFACE_SIDE_STYLE('',(#697));
#426=EDGE_LOOP('',(#698,#699,#700,#701));
#427=AXIS2_PLACEMENT_3D('',#702,#703,#704);
#428=SURFACE_SIDE_STYLE('',(#705));
#429=EDGE_LOOP('',(#706,#707,#708,#709));
#430=AXIS2_PLACEMENT_3D('',#710,#711,#712);
#431=SURFACE_SIDE_STYLE('',(#713));
#432=EDGE_LOOP('',(#714,#715,#716,#717));
#433=AXIS2_PLACEMENT_3D('',#718,#719,#720);
#434=SURFACE_SIDE_STYLE('',(#721));
#435=EDGE_LOOP('',(#722,#723,#724,#725));
#436=AXIS2_PLACEMENT_3D('',#726,#727,#728);
#437=SURFACE_SIDE_STYLE('',(#729));
#438=EDGE_LOOP('',(#730,#731,#732,#733));
#439=AXIS2_PLACEMENT_3D('',#734,#735,#736);
#440=SURFACE_SIDE_STYLE('',(#737));
#441=EDGE_LOOP('',(#738,#739,#740,#741));
#442=AXIS2_PLACEMENT_3D('',#742,#743,#744);
#443=SURFACE_SIDE_STYLE('',(#745));
#444=EDGE_LOOP('',(#746,#747,#748,#749,#750));
#445=AXIS2_PLACEMENT_3D('',#751,#752,#753);
#446=SURFACE_SIDE_STYLE('',(#754));
#447=EDGE_LOOP('',(#755));
#448=EDGE_LOOP('',(#756));
#449=AXIS2_PLACEMENT_3D('',#757,#758,#759);
#450=SURFACE_SIDE_STYLE('',(#760));
#451=EDGE_LOOP('',(#761,#762,#763,#764));
#452=AXIS2_PLACEMENT_3D('',#765,#766,#767);
#453=SURFACE_SIDE_STYLE('',(#768));
#454=EDGE_LOOP('',(#769,#770,#771,#772));
#455=AXIS2_PLACEMENT_3D('',#773,#774,#775);
#456=SURFACE_SIDE_STYLE('',(#776));
#457=EDGE_LOOP('',(#777,#778,#779,#780));
#458=AXIS2_PLACEMENT_3D('',#781,#782,#783);
#459=SURFACE_SIDE_STYLE('',(#784));
#460=EDGE_LOOP('',(#785,#786,#787,#788));
#461=AXIS2_PLACEMENT_3D('',#789,#790,#791);
#462=SURFACE_SIDE_STYLE('',(#792));
#463=EDGE_LOOP('',(#793,#794,#795,#796));
#464=AXIS2_PLACEMENT_3D('',#797,#798,#799);
#465=SURFACE_SIDE_STYLE('',(#800));
#466=EDGE_LOOP('',(#801,#802,#803,#804,#805,#806,#807,#808));
#467=AXIS2_PLACEMENT_3D('',#809,#810,#811);
#468=SURFACE_SIDE_STYLE('',(#812));
#469=EDGE_LOOP('',(#813,#814,#815,#816,#817));
#470=AXIS2_PLACEMENT_3D('',#818,#819,#820);
#472= (NAMED_UNIT(#340)LENGTH_UNIT()SI_UNIT(.MILLI.,.METRE.));
#473=SURFACE_STYLE_FILL_AREA(#822);
#474=ORIENTED_EDGE('',*,*,#823,.F.);
#475=ORIENTED_EDGE('',*,*,#824,.F.);
#476=ORIENTED_EDGE('',*,*,#825,.F.);
#477=ORIENTED_EDGE('',*,*,#826,.F.);
#478=ORIENTED_EDGE('',*,*,#827,.F.);
#479=ORIENTED_EDGE('',*,*,#828,.F.);
#480=ORIENTED_EDGE('',*,*,#829,.F.);
#481=ORIENTED_EDGE('',*,*,#830,.F.);
#482=CARTESIAN_POINT('',(-3.81,-5.0,0.0));
#483=DIRECTION('',(0.0,0.0,1.0));
#484=DIRECTION('',(1.0,0.0,0.0));
#485=SURFACE_STYLE_FILL_AREA(#831);
#486=ORIENTED_EDGE('',*,*,#832,.T.);
#487=ORIENTED_EDGE('',*,*,#833,.T.);
#488=ORIENTED_EDGE('',*,*,#834,.T.);
#489=ORIENTED_EDGE('',*,*,#835,.T.);
#490=ORIENTED_EDGE('',*,*,#836,.T.);
#491=ORIENTED_EDGE('',*,*,#837,.T.);
#492=ORIENTED_EDGE('',*,*,#838,.T.);
#493=ORIENTED_EDGE('',*,*,#839,.T.);
#494=ORIENTED_EDGE('',*,*,#840,.T.);
#495=ORIENTED_EDGE('',*,*,#841,.T.);
#496=ORIENTED_EDGE('',*,*,#842,.T.);
#497=ORIENTED_EDGE('',*,*,#843,.T.);
#498=ORIENTED_EDGE('',*,*,#844,.T.);
#499=CARTESIAN_POINT('',(0.0,-8.67361737988404E-16,8.4));
#500=DIRECTION('',(0.0,0.0,1.0));
#501=DIRECTION('',(1.0,0.0,0.0));
#502=SURFACE_STYLE_FILL_AREA(#845);
#503=ORIENTED_EDGE('',*,*,#846,.F.);
#504=ORIENTED_EDGE('',*,*,#847,.T.);
#505=ORIENTED_EDGE('',*,*,#848,.F.);
#506=ORIENTED_EDGE('',*,*,#849,.F.);
#507=ORIENTED_EDGE('',*,*,#850,.T.);
#508=ORIENTED_EDGE('',*,*,#851,.T.);
#509=CARTESIAN_POINT('',(3.21,6.25,4.0));
#510=DIRECTION('',(-1.0,0.0,0.0));
#511=DIRECTION('',(0.0,0.0,-1.0));
#512=SURFACE_STYLE_FILL_AREA(#852);
#513=ORIENTED_EDGE('',*,*,#853,.F.);
#514=ORIENTED_EDGE('',*,*,#854,.T.);
#515=ORIENTED_EDGE('',*,*,#855,.F.);
#516=ORIENTED_EDGE('',*,*,#856,.T.);
#517=ORIENTED_EDGE('',*,*,#857,.T.);
#518=ORIENTED_EDGE('',*,*,#858,.F.);
#519=CARTESIAN_POINT('',(-3.21,-6.25,4.0));
#520=DIRECTION('',(1.0,0.0,-0.0));
#521=DIRECTION('',(0.0,0.0,1.0));
#522=SURFACE_STYLE_FILL_AREA(#859);
#523=ORIENTED_EDGE('',*,*,#860,.T.);
#524=ORIENTED_EDGE('',*,*,#848,.T.);
#525=ORIENTED_EDGE('',*,*,#861,.T.);
#526=ORIENTED_EDGE('',*,*,#853,.T.);
#527=ORIENTED_EDGE('',*,*,#862,.T.);
#528=ORIENTED_EDGE('',*,*,#863,.T.);
#529=ORIENTED_EDGE('',*,*,#864,.T.);
#530=ORIENTED_EDGE('',*,*,#865,.T.);
#531=CARTESIAN_POINT('',(-3.81,-5.0,10.4));
#532=DIRECTION('',(0.0,0.0,1.0));
#533=DIRECTION('',(1.0,0.0,0.0));
#534=SURFACE_STYLE_FILL_AREA(#866);
#535=ORIENTED_EDGE('',*,*,#864,.F.);
#536=ORIENTED_EDGE('',*,*,#867,.T.);
#537=ORIENTED_EDGE('',*,*,#826,.T.);
#538=ORIENTED_EDGE('',*,*,#868,.F.);
#539=CARTESIAN_POINT('',(-3.81,-5.0,10.4));
#540=DIRECTION('',(0.0,1.0,0.0));
#541=DIRECTION('',(0.0,0.0,1.0));
#542=SURFACE_STYLE_FILL_AREA(#869);
#543=ORIENTED_EDGE('',*,*,#855,.T.);
#544=ORIENTED_EDGE('',*,*,#870,.T.);
#545=ORIENTED_EDGE('',*,*,#846,.T.);
#546=ORIENTED_EDGE('',*,*,#871,.T.);
#547=ORIENTED_EDGE('',*,*,#872,.F.);
#548=ORIENTED_EDGE('',*,*,#873,.F.);
#549=ORIENTED_EDGE('',*,*,#874,.F.);
#550=ORIENTED_EDGE('',*,*,#875,.F.);
#551=CARTESIAN_POINT('',(-3.21,-4.0,6.0));
#552=DIRECTION('',(0.0,0.0,1.0));
#553=DIRECTION('',(1.0,0.0,0.0));
#554=SURFACE_STYLE_FILL_AREA(#876);
#555=ORIENTED_EDGE('',*,*,#877,.T.);
#556=ORIENTED_EDGE('',*,*,#878,.T.);
#557=ORIENTED_EDGE('',*,*,#843,.F.);
#558=ORIENTED_EDGE('',*,*,#879,.F.);
#559=CARTESIAN_POINT('',(0.5,1.5,7.4));
#560=DIRECTION('',(-1.0,0.0,0.0));
#561=DIRECTION('',(0.0,0.0,-1.0));
#562=SURFACE_STYLE_FILL_AREA(#880);
#563=ORIENTED_EDGE('',*,*,#873,.T.);
#564=ORIENTED_EDGE('',*,*,#881,.F.);
#565=ORIENTED_EDGE('',*,*,#882,.F.);
#566=ORIENTED_EDGE('',*,*,#883,.T.);
#567=CARTESIAN_POINT('',(-3.0,3.0,7.2));
#568=DIRECTION('',(1.0,0.0,0.0));
#569=DIRECTION('',(0.0,0.0,-1.0));
#570=SURFACE_STYLE_FILL_AREA(#884);
#571=ORIENTED_EDGE('',*,*,#872,.T.);
#572=ORIENTED_EDGE('',*,*,#885,.F.);
#573=ORIENTED_EDGE('',*,*,#886,.F.);
#574=ORIENTED_EDGE('',*,*,#881,.T.);
#575=CARTESIAN_POINT('',(-3.0,-3.0,7.2));
#576=DIRECTION('',(0.0,1.0,0.0));
#577=DIRECTION('',(0.0,0.0,1.0));
#578=SURFACE_STYLE_FILL_AREA(#887);
#579=ORIENTED_EDGE('',*,*,#875,.T.);
#580=ORIENTED_EDGE('',*,*,#888,.F.);
#581=ORIENTED_EDGE('',*,*,#889,.F.);
#582=ORIENTED_EDGE('',*,*,#885,.T.);
#583=CARTESIAN_POINT('',(3.0,-3.0,7.2));
#584=DIRECTION('',(-1.0,0.0,0.0));
#585=DIRECTION('',(0.0,0.0,1.0));
#586=SURFACE_STYLE_FILL_AREA(#890);
#587=ORIENTED_EDGE('',*,*,#874,.T.);
#588=ORIENTED_EDGE('',*,*,#883,.F.);
#589=ORIENTED_EDGE('',*,*,#891,.F.);
#590=ORIENTED_EDGE('',*,*,#888,.T.);
#591=CARTESIAN_POINT('',(3.0,3.0,7.2));
#592=DIRECTION('',(0.0,-1.0,0.0));
#593=DIRECTION('',(0.0,0.0,-1.0));
#594=SURFACE_STYLE_FILL_AREA(#892);
#595=ORIENTED_EDGE('',*,*,#893,.F.);
#596=ORIENTED_EDGE('',*,*,#882,.T.);
#597=ORIENTED_EDGE('',*,*,#886,.T.);
#598=ORIENTED_EDGE('',*,*,#889,.T.);
#599=ORIENTED_EDGE('',*,*,#891,.T.);
#600=CARTESIAN_POINT('',(-3.0,-3.0,7.2));
#601=DIRECTION('',(0.0,0.0,1.0));
#602=DIRECTION('',(1.0,0.0,0.0));
#603=SURFACE_STYLE_FILL_AREA(#894);
#604=ORIENTED_EDGE('',*,*,#895,.T.);
#605=ORIENTED_EDGE('',*,*,#893,.T.);
#606=CARTESIAN_POINT('',(0.0,-8.67361737988404E-16,8.4));
#607=DIRECTION('',(0.0,0.0,-1.0));
#608=DIRECTION('',(-1.0,0.0,0.0));
#609=SURFACE_STYLE_FILL_AREA(#896);
#610=ORIENTED_EDGE('',*,*,#897,.T.);
#611=ORIENTED_EDGE('',*,*,#898,.T.);
#612=ORIENTED_EDGE('',*,*,#837,.F.);
#613=ORIENTED_EDGE('',*,*,#899,.F.);
#614=CARTESIAN_POINT('',(-0.5,-1.5,7.4));
#615=DIRECTION('',(1.0,0.0,-0.0));
#616=DIRECTION('',(0.0,0.0,1.0));
#617=SURFACE_STYLE_FILL_AREA(#900);
#618=ORIENTED_EDGE('',*,*,#842,.F.);
#619=ORIENTED_EDGE('',*,*,#901,.F.);
#620=ORIENTED_EDGE('',*,*,#902,.T.);
#621=ORIENTED_EDGE('',*,*,#879,.T.);
#622=CARTESIAN_POINT('',(-0.5,1.5,7.4));
#623=DIRECTION('',(0.0,-1.0,0.0));
#624=DIRECTION('',(0.0,0.0,-1.0));
#625=SURFACE_STYLE_FILL_AREA(#903);
#626=ORIENTED_EDGE('',*,*,#835,.F.);
#627=ORIENTED_EDGE('',*,*,#904,.T.);
#628=ORIENTED_EDGE('',*,*,#905,.T.);
#629=ORIENTED_EDGE('',*,*,#906,.T.);
#630=CARTESIAN_POINT('',(0.5,1.5,7.4));
#631=DIRECTION('',(-1.0,0.0,0.0));
#632=DIRECTION('',(0.0,0.0,-1.0));
#633=SURFACE_STYLE_FILL_AREA(#907);
#634=ORIENTED_EDGE('',*,*,#836,.F.);
#635=ORIENTED_EDGE('',*,*,#906,.F.);
#636=ORIENTED_EDGE('',*,*,#908,.T.);
#637=ORIENTED_EDGE('',*,*,#899,.T.);
#638=CARTESIAN_POINT('',(0.5,-1.5,7.4));
#639=DIRECTION('',(0.0,1.0,0.0));
#640=DIRECTION('',(0.0,0.0,1.0));
#641=SURFACE_STYLE_FILL_AREA(#909);
#642=ORIENTED_EDGE('',*,*,#910,.F.);
#643=ORIENTED_EDGE('',*,*,#911,.F.);
#644=ORIENTED_EDGE('',*,*,#912,.F.);
#645=ORIENTED_EDGE('',*,*,#913,.F.);
#646=ORIENTED_EDGE('',*,*,#897,.F.);
#647=ORIENTED_EDGE('',*,*,#908,.F.);
#648=ORIENTED_EDGE('',*,*,#905,.F.);
#649=ORIENTED_EDGE('',*,*,#914,.F.);
#650=ORIENTED_EDGE('',*,*,#915,.F.);
#651=ORIENTED_EDGE('',*,*,#916,.F.);
#652=ORIENTED_EDGE('',*,*,#877,.F.);
#653=ORIENTED_EDGE('',*,*,#902,.F.);
#654=CARTESIAN_POINT('',(-0.5,1.5,7.4));
#655=DIRECTION('',(0.0,0.0,-1.0));
#656=DIRECTION('',(1.0,0.0,0.0));
#657=SURFACE_STYLE_FILL_AREA(#917);
#658=ORIENTED_EDGE('',*,*,#834,.F.);
#659=ORIENTED_EDGE('',*,*,#918,.F.);
#660=ORIENTED_EDGE('',*,*,#914,.T.);
#661=ORIENTED_EDGE('',*,*,#904,.F.);
#662=CARTESIAN_POINT('',(1.5,-0.5,7.4));
#663=DIRECTION('',(0.0,1.0,0.0));
#664=DIRECTION('',(0.0,0.0,1.0));
#665=SURFACE_STYLE_FILL_AREA(#919);
#666=ORIENTED_EDGE('',*,*,#839,.F.);
#667=ORIENTED_EDGE('',*,*,#920,.F.);
#668=ORIENTED_EDGE('',*,*,#912,.T.);
#669=ORIENTED_EDGE('',*,*,#921,.T.);
#670=CARTESIAN_POINT('',(-1.5,-0.5,7.4));
#671=DIRECTION('',(1.0,0.0,0.0));
#672=DIRECTION('',(0.0,0.0,-1.0));
#673=SURFACE_STYLE_FILL_AREA(#922);
#674=ORIENTED_EDGE('',*,*,#916,.T.);
#675=ORIENTED_EDGE('',*,*,#923,.T.);
#676=ORIENTED_EDGE('',*,*,#844,.F.);
#677=ORIENTED_EDGE('',*,*,#878,.F.);
#678=CARTESIAN_POINT('',(-1.5,0.5,7.4));
#679=DIRECTION('',(0.0,-1.0,0.0));
#680=DIRECTION('',(0.0,0.0,-1.0));
#681=SURFACE_STYLE_FILL_AREA(#924);
#682=ORIENTED_EDGE('',*,*,#833,.F.);
#683=ORIENTED_EDGE('',*,*,#923,.F.);
#684=ORIENTED_EDGE('',*,*,#915,.T.);
#685=ORIENTED_EDGE('',*,*,#918,.T.);
#686=CARTESIAN_POINT('',(1.5,0.5,7.4));
#687=DIRECTION('',(-1.0,0.0,0.0));
#688=DIRECTION('',(0.0,0.0,1.0));
#689=SURFACE_STYLE_FILL_AREA(#925);
#690=ORIENTED_EDGE('',*,*,#926,.F.);
#691=ORIENTED_EDGE('',*,*,#927,.T.);
#692=ORIENTED_EDGE('',*,*,#928,.T.);
#693=ORIENTED_EDGE('',*,*,#827,.T.);
#694=CARTESIAN_POINT('',(-0.6,-4.00000000009095,-4.0));
#695=DIRECTION('',(1.0,0.0,-0.0));
#696=DIRECTION('',(0.0,0.0,1.0));
#697=SURFACE_STYLE_FILL_AREA(#929);
#698=ORIENTED_EDGE('',*,*,#930,.F.);
#699=ORIENTED_EDGE('',*,*,#931,.T.);
#700=ORIENTED_EDGE('',*,*,#926,.T.);
#701=ORIENTED_EDGE('',*,*,#830,.T.);
#702=CARTESIAN_POINT('',(-0.6,-3.20000000009095,-4.0));
#703=DIRECTION('',(0.0,-1.0,0.0));
#704=DIRECTION('',(0.0,0.0,-1.0));
#705=SURFACE_STYLE_FILL_AREA(#932);
#706=ORIENTED_EDGE('',*,*,#933,.F.);
#707=ORIENTED_EDGE('',*,*,#934,.T.);
#708=ORIENTED_EDGE('',*,*,#930,.T.);
#709=ORIENTED_EDGE('',*,*,#829,.T.);
#710=CARTESIAN_POINT('',(0.6,-3.20000000009095,-4.0));
#711=DIRECTION('',(-1.0,0.0,0.0));
#712=DIRECTION('',(0.0,0.0,-1.0));
#713=SURFACE_STYLE_FILL_AREA(#935);
#714=ORIENTED_EDGE('',*,*,#936,.T.);
#715=ORIENTED_EDGE('',*,*,#933,.T.);
#716=ORIENTED_EDGE('',*,*,#828,.T.);
#717=ORIENTED_EDGE('',*,*,#928,.F.);
#718=CARTESIAN_POINT('',(0.6,-4.00000000009095,-4.0));
#719=DIRECTION('',(0.0,1.0,0.0));
#720=DIRECTION('',(0.0,0.0,1.0));
#721=SURFACE_STYLE_FILL_AREA(#937);
#722=ORIENTED_EDGE('',*,*,#854,.F.);
#723=ORIENTED_EDGE('',*,*,#861,.F.);
#724=ORIENTED_EDGE('',*,*,#847,.F.);
#725=ORIENTED_EDGE('',*,*,#870,.F.);
#726=CARTESIAN_POINT('',(3.81000000002601,-4.0,10.3999999999262));
#727=DIRECTION('',(0.0,-1.0,0.0));
#728=DIRECTION('',(0.0,0.0,-1.0));
#729=SURFACE_STYLE_FILL_AREA(#938);
#730=ORIENTED_EDGE('',*,*,#927,.F.);
#731=ORIENTED_EDGE('',*,*,#931,.F.);
#732=ORIENTED_EDGE('',*,*,#934,.F.);
#733=ORIENTED_EDGE('',*,*,#936,.F.);
#734=CARTESIAN_POINT('',(1.0842021724855E-16,-3.20000000009095,-3.4));
#735=DIRECTION('',(0.0,-1.0,0.0));
#736=DIRECTION('',(0.0,0.0,-1.0));
#737=SURFACE_STYLE_FILL_AREA(#939);
#738=ORIENTED_EDGE('',*,*,#851,.F.);
#739=ORIENTED_EDGE('',*,*,#940,.F.);
#740=ORIENTED_EDGE('',*,*,#856,.F.);
#741=ORIENTED_EDGE('',*,*,#871,.F.);
#742=CARTESIAN_POINT('',(3.21,4.0,6.0));
#743=DIRECTION('',(-0.0,0.707106781186551,0.707106781186544));
#744=DIRECTION('',(1.0,0.0,0.0));
#745=SURFACE_STYLE_FILL_AREA(#941);
#746=ORIENTED_EDGE('',*,*,#868,.T.);
#747=ORIENTED_EDGE('',*,*,#825,.T.);
#748=ORIENTED_EDGE('',*,*,#942,.F.);
#749=ORIENTED_EDGE('',*,*,#943,.T.);
#750=ORIENTED_EDGE('',*,*,#865,.F.);
#751=CARTESIAN_POINT('',(3.81,-5.0,10.4));
#752=DIRECTION('',(-1.0,0.0,0.0));
#753=DIRECTION('',(0.0,0.0,1.0));
#754=SURFACE_STYLE_FILL_AREA(#944);
#755=ORIENTED_EDGE('',*,*,#895,.F.);
#756=ORIENTED_EDGE('',*,*,#832,.F.);
#757=CARTESIAN_POINT('',(0.0,-8.67361737988404E-16,7.9));
#758=DIRECTION('',(0.0,0.0,1.0));
#759=DIRECTION('',(1.0,0.0,0.0));
#760=SURFACE_STYLE_FILL_AREA(#945);
#761=ORIENTED_EDGE('',*,*,#841,.F.);
#762=ORIENTED_EDGE('',*,*,#946,.T.);
#763=ORIENTED_EDGE('',*,*,#910,.T.);
#764=ORIENTED_EDGE('',*,*,#901,.T.);
#765=CARTESIAN_POINT('',(-0.5,-1.5,7.4));
#766=DIRECTION('',(1.0,0.0,-0.0));
#767=DIRECTION('',(0.0,0.0,1.0));
#768=SURFACE_STYLE_FILL_AREA(#947);
#769=ORIENTED_EDGE('',*,*,#913,.T.);
#770=ORIENTED_EDGE('',*,*,#920,.T.);
#771=ORIENTED_EDGE('',*,*,#838,.F.);
#772=ORIENTED_EDGE('',*,*,#898,.F.);
#773=CARTESIAN_POINT('',(1.5,-0.5,7.4));
#774=DIRECTION('',(0.0,1.0,0.0));
#775=DIRECTION('',(0.0,0.0,1.0));
#776=SURFACE_STYLE_FILL_AREA(#948);
#777=ORIENTED_EDGE('',*,*,#840,.F.);
#778=ORIENTED_EDGE('',*,*,#921,.F.);
#779=ORIENTED_EDGE('',*,*,#911,.T.);
#780=ORIENTED_EDGE('',*,*,#946,.F.);
#781=CARTESIAN_POINT('',(-1.5,0.5,7.4));
#782=DIRECTION('',(0.0,-1.0,0.0));
#783=DIRECTION('',(0.0,0.0,-1.0));
#784=SURFACE_STYLE_FILL_AREA(#949);
#785=ORIENTED_EDGE('',*,*,#862,.F.);
#786=ORIENTED_EDGE('',*,*,#858,.T.);
#787=ORIENTED_EDGE('',*,*,#950,.F.);
#788=ORIENTED_EDGE('',*,*,#951,.F.);
#789=CARTESIAN_POINT('',(-3.81,4.0,9.4));
#790=DIRECTION('',(1.0,0.0,0.0));
#791=DIRECTION('',(0.0,0.0,-1.0));
#792=SURFACE_STYLE_FILL_AREA(#952);
#793=ORIENTED_EDGE('',*,*,#953,.F.);
#794=ORIENTED_EDGE('',*,*,#849,.T.);
#795=ORIENTED_EDGE('',*,*,#860,.F.);
#796=ORIENTED_EDGE('',*,*,#943,.F.);
#797=CARTESIAN_POINT('',(-3.81,4.0,9.4));
#798=DIRECTION('',(1.0,0.0,0.0));
#799=DIRECTION('',(0.0,0.0,-1.0));
#800=SURFACE_STYLE_FILL_AREA(#954);
#801=ORIENTED_EDGE('',*,*,#857,.F.);
#802=ORIENTED_EDGE('',*,*,#940,.T.);
#803=ORIENTED_EDGE('',*,*,#850,.F.);
#804=ORIENTED_EDGE('',*,*,#953,.T.);
#805=ORIENTED_EDGE('',*,*,#942,.T.);
#806=ORIENTED_EDGE('',*,*,#824,.T.);
#807=ORIENTED_EDGE('',*,*,#955,.F.);
#808=ORIENTED_EDGE('',*,*,#950,.T.);
#809=CARTESIAN_POINT('',(3.81,5.0,10.4));
#810=DIRECTION('',(0.0,-1.0,0.0));
#811=DIRECTION('',(0.0,0.0,-1.0));
#812=SURFACE_STYLE_FILL_AREA(#956);
#813=ORIENTED_EDGE('',*,*,#823,.T.);
#814=ORIENTED_EDGE('',*,*,#867,.F.);
#815=ORIENTED_EDGE('',*,*,#863,.F.);
#816=ORIENTED_EDGE('',*,*,#951,.T.);
#817=ORIENTED_EDGE('',*,*,#955,.T.);
#818=CARTESIAN_POINT('',(-3.81,5.0,10.4));
#819=DIRECTION('',(1.0,0.0,0.0));
#820=DIRECTION('',(0.0,0.0,-1.0));
#822=FILL_AREA_STYLE('',(#957));
#823=EDGE_CURVE('',#958,#959,#960,.T.);
#824=EDGE_CURVE('',#961,#958,#962,.T.);
#825=EDGE_CURVE('',#963,#961,#964,.T.);
#826=EDGE_CURVE('',#959,#963,#965,.T.);
#827=EDGE_CURVE('',#966,#967,#968,.T.);
#828=EDGE_CURVE('',#969,#966,#970,.T.);
#829=EDGE_CURVE('',#971,#969,#972,.T.);
#830=EDGE_CURVE('',#967,#971,#973,.T.);
#831=FILL_AREA_STYLE('',(#974));
#832=EDGE_CURVE('',#975,#975,#976,.T.);
#833=EDGE_CURVE('',#977,#978,#979,.T.);
#834=EDGE_CURVE('',#978,#980,#981,.T.);
#835=EDGE_CURVE('',#980,#982,#983,.T.);
#836=EDGE_CURVE('',#982,#984,#985,.T.);
#837=EDGE_CURVE('',#984,#986,#987,.T.);
#838=EDGE_CURVE('',#986,#988,#989,.T.);
#839=EDGE_CURVE('',#988,#990,#991,.T.);
#840=EDGE_CURVE('',#990,#992,#993,.T.);
#841=EDGE_CURVE('',#992,#994,#995,.T.);
#842=EDGE_CURVE('',#994,#996,#997,.T.);
#843=EDGE_CURVE('',#996,#998,#999,.T.);
#844=EDGE_CURVE('',#998,#977,#1000,.T.);
#845=FILL_AREA_STYLE('',(#1001));
#846=EDGE_CURVE('',#1002,#1003,#1004,.T.);
#847=EDGE_CURVE('',#1002,#1005,#1006,.T.);
#848=EDGE_CURVE('',#1007,#1005,#1008,.T.);
#849=EDGE_CURVE('',#1009,#1007,#1010,.F.);
#850=EDGE_CURVE('',#1009,#1011,#1012,.T.);
#851=EDGE_CURVE('',#1011,#1003,#1013,.F.);
#852=FILL_AREA_STYLE('',(#1014));
#853=EDGE_CURVE('',#1015,#1016,#1017,.T.);
#854=EDGE_CURVE('',#1015,#1018,#1019,.T.);
#855=EDGE_CURVE('',#1020,#1018,#1021,.T.);
#856=EDGE_CURVE('',#1020,#1022,#1023,.F.);
#857=EDGE_CURVE('',#1022,#1024,#1025,.T.);
#858=EDGE_CURVE('',#1016,#1024,#1026,.F.);
#859=FILL_AREA_STYLE('',(#1027));
#860=EDGE_CURVE('',#1028,#1007,#1029,.T.);
#861=EDGE_CURVE('',#1005,#1015,#1030,.T.);
#862=EDGE_CURVE('',#1016,#1031,#1032,.T.);
#863=EDGE_CURVE('',#1031,#1033,#1034,.T.);
#864=EDGE_CURVE('',#1033,#1035,#1036,.T.);
#865=EDGE_CURVE('',#1035,#1028,#1037,.T.);
#866=FILL_AREA_STYLE('',(#1038));
#867=EDGE_CURVE('',#1033,#959,#1039,.T.);
#868=EDGE_CURVE('',#1035,#963,#1040,.T.);
#869=FILL_AREA_STYLE('',(#1041));
#870=EDGE_CURVE('',#1018,#1002,#1042,.T.);
#871=EDGE_CURVE('',#1003,#1020,#1043,.T.);
#872=EDGE_CURVE('',#1044,#1045,#1046,.T.);
#873=EDGE_CURVE('',#1047,#1044,#1048,.T.);
#874=EDGE_CURVE('',#1049,#1047,#1050,.T.);
#875=EDGE_CURVE('',#1045,#1049,#1051,.T.);
#876=FILL_AREA_STYLE('',(#1052));
#877=EDGE_CURVE('',#1053,#1054,#1055,.T.);
#878=EDGE_CURVE('',#1054,#998,#1056,.T.);
#879=EDGE_CURVE('',#1053,#996,#1057,.T.);
#880=FILL_AREA_STYLE('',(#1058));
#881=EDGE_CURVE('',#1059,#1044,#1060,.T.);
#882=EDGE_CURVE('',#1061,#1059,#1062,.T.);
#883=EDGE_CURVE('',#1061,#1047,#1063,.T.);
#884=FILL_AREA_STYLE('',(#1064));
#885=EDGE_CURVE('',#1065,#1045,#1066,.T.);
#886=EDGE_CURVE('',#1059,#1065,#1067,.T.);
#887=FILL_AREA_STYLE('',(#1068));
#888=EDGE_CURVE('',#1069,#1049,#1070,.T.);
#889=EDGE_CURVE('',#1065,#1069,#1071,.T.);
#890=FILL_AREA_STYLE('',(#1072));
#891=EDGE_CURVE('',#1069,#1061,#1073,.T.);
#892=FILL_AREA_STYLE('',(#1074));
#893=EDGE_CURVE('',#1075,#1075,#1076,.T.);
#894=FILL_AREA_STYLE('',(#1077));
#895=EDGE_CURVE('',#1078,#1078,#1079,.F.);
#896=FILL_AREA_STYLE('',(#1080));
#897=EDGE_CURVE('',#1081,#1082,#1083,.T.);
#898=EDGE_CURVE('',#1082,#986,#1084,.T.);
#899=EDGE_CURVE('',#1081,#984,#1085,.T.);
#900=FILL_AREA_STYLE('',(#1086));
#901=EDGE_CURVE('',#1087,#994,#1088,.T.);
#902=EDGE_CURVE('',#1087,#1053,#1089,.T.);
#903=FILL_AREA_STYLE('',(#1090));
#904=EDGE_CURVE('',#980,#1091,#1092,.T.);
#905=EDGE_CURVE('',#1091,#1093,#1094,.T.);
#906=EDGE_CURVE('',#1093,#982,#1095,.T.);
#907=FILL_AREA_STYLE('',(#1096));
#908=EDGE_CURVE('',#1093,#1081,#1097,.T.);
#909=FILL_AREA_STYLE('',(#1098));
#910=EDGE_CURVE('',#1099,#1087,#1100,.T.);
#911=EDGE_CURVE('',#1101,#1099,#1102,.T.);
#912=EDGE_CURVE('',#1103,#1101,#1104,.T.);
#913=EDGE_CURVE('',#1082,#1103,#1105,.T.);
#914=EDGE_CURVE('',#1106,#1091,#1107,.T.);
#915=EDGE_CURVE('',#1108,#1106,#1109,.T.);
#916=EDGE_CURVE('',#1054,#1108,#1110,.T.);
#917=FILL_AREA_STYLE('',(#1111));
#918=EDGE_CURVE('',#1106,#978,#1112,.T.);
#919=FILL_AREA_STYLE('',(#1113));
#920=EDGE_CURVE('',#1103,#988,#1114,.T.);
#921=EDGE_CURVE('',#1101,#990,#1115,.T.);
#922=FILL_AREA_STYLE('',(#1116));
#923=EDGE_CURVE('',#1108,#977,#1117,.T.);
#924=FILL_AREA_STYLE('',(#1118));
#925=FILL_AREA_STYLE('',(#1119));
#926=EDGE_CURVE('',#1120,#967,#1121,.T.);
#927=EDGE_CURVE('',#1120,#1122,#1123,.F.);
#928=EDGE_CURVE('',#1122,#966,#1124,.T.);
#929=FILL_AREA_STYLE('',(#1125));
#930=EDGE_CURVE('',#1126,#971,#1127,.T.);
#931=EDGE_CURVE('',#1126,#1120,#1128,.F.);
#932=FILL_AREA_STYLE('',(#1129));
#933=EDGE_CURVE('',#1130,#969,#1131,.T.);
#934=EDGE_CURVE('',#1130,#1126,#1132,.F.);
#935=FILL_AREA_STYLE('',(#1133));
#936=EDGE_CURVE('',#1122,#1130,#1134,.F.);
#937=FILL_AREA_STYLE('',(#1135));
#938=FILL_AREA_STYLE('',(#1136));
#939=FILL_AREA_STYLE('',(#1137));
#940=EDGE_CURVE('',#1022,#1011,#1138,.F.);
#941=FILL_AREA_STYLE('',(#1139));
#942=EDGE_CURVE('',#1140,#961,#1141,.T.);
#943=EDGE_CURVE('',#1140,#1028,#1142,.F.);
#944=FILL_AREA_STYLE('',(#1143));
#945=FILL_AREA_STYLE('',(#1144));
#946=EDGE_CURVE('',#992,#1099,#1145,.T.);
#947=FILL_AREA_STYLE('',(#1146));
#948=FILL_AREA_STYLE('',(#1147));
#949=FILL_AREA_STYLE('',(#1148));
#950=EDGE_CURVE('',#1149,#1024,#1150,.F.);
#951=EDGE_CURVE('',#1031,#1149,#1151,.F.);
#952=FILL_AREA_STYLE('',(#1152));
#953=EDGE_CURVE('',#1009,#1140,#1153,.F.);
#954=FILL_AREA_STYLE('',(#1154));
#955=EDGE_CURVE('',#1149,#958,#1155,.T.);
#956=FILL_AREA_STYLE('',(#1156));
#957=FILL_AREA_STYLE_COLOUR('',#1157);
#958=VERTEX_POINT('',#1158);
#959=VERTEX_POINT('',#1159);
#960=LINE('',#1160,#1161);
#961=VERTEX_POINT('',#1162);
#962=LINE('',#1163,#1164);
#963=VERTEX_POINT('',#1165);
#964=LINE('',#1166,#1167);
#965=LINE('',#1168,#1169);
#966=VERTEX_POINT('',#1170);
#967=VERTEX_POINT('',#1171);
#968=LINE('',#1172,#1173);
#969=VERTEX_POINT('',#1174);
#970=LINE('',#1175,#1176);
#971=VERTEX_POINT('',#1177);
#972=LINE('',#1178,#1179);
#973=LINE('',#1180,#1181);
#974=FILL_AREA_STYLE_COLOUR('',#1182);
#975=VERTEX_POINT('',#1183);
#976=CIRCLE('',#1184,2.0);
#977=VERTEX_POINT('',#1185);
#978=VERTEX_POINT('',#1186);
#979=LINE('',#1187,#1188);
#980=VERTEX_POINT('',#1189);
#981=LINE('',#1190,#1191);
#982=VERTEX_POINT('',#1192);
#983=LINE('',#1193,#1194);
#984=VERTEX_POINT('',#1195);
#985=LINE('',#1196,#1197);
#986=VERTEX_POINT('',#1198);
#987=LINE('',#1199,#1200);
#988=VERTEX_POINT('',#1201);
#989=LINE('',#1202,#1203);
#990=VERTEX_POINT('',#1204);
#991=LINE('',#1205,#1206);
#992=VERTEX_POINT('',#1207);
#993=LINE('',#1208,#1209);
#994=VERTEX_POINT('',#1210);
#995=LINE('',#1211,#1212);
#996=VERTEX_POINT('',#1213);
#997=LINE('',#1214,#1215);
#998=VERTEX_POINT('',#1216);
#999=LINE('',#1217,#1218);
#1000=LINE('',#1219,#1220);
#1001=FILL_AREA_STYLE_COLOUR('',#1221);
#1002=VERTEX_POINT('',#1222);
#1003=VERTEX_POINT('',#1223);
#1004=LINE('',#1224,#1225);
#1005=VERTEX_POINT('',#1226);
#1006=LINE('',#1227,#1228);
#1007=VERTEX_POINT('',#1229);
#1008=LINE('',#1230,#1231);
#1009=VERTEX_POINT('',#1232);
#1010=CIRCLE('',#1233,1.0);
#1011=VERTEX_POINT('',#1234);
#1012=LINE('',#1235,#1236);
#1013=LINE('',#1237,#1238);
#1014=FILL_AREA_STYLE_COLOUR('',#1239);
#1015=VERTEX_POINT('',#1240);
#1016=VERTEX_POINT('',#1241);
#1017=LINE('',#1242,#1243);
#1018=VERTEX_POINT('',#1244);
#1019=LINE('',#1245,#1246);
#1020=VERTEX_POINT('',#1247);
#1021=LINE('',#1248,#1249);
#1022=VERTEX_POINT('',#1250);
#1023=LINE('',#1251,#1252);
#1024=VERTEX_POINT('',#1253);
#1025=LINE('',#1254,#1255);
#1026=CIRCLE('',#1256,1.0);
#1027=FILL_AREA_STYLE_COLOUR('',#1257);
#1028=VERTEX_POINT('',#1258);
#1029=LINE('',#1259,#1260);
#1030=LINE('',#1261,#1262);
#1031=VERTEX_POINT('',#1263);
#1032=LINE('',#1264,#1265);
#1033=VERTEX_POINT('',#1266);
#1034=LINE('',#1267,#1268);
#1035=VERTEX_POINT('',#1269);
#1036=LINE('',#1270,#1271);
#1037=LINE('',#1272,#1273);
#1038=FILL_AREA_STYLE_COLOUR('',#1274);
#1039=LINE('',#1275,#1276);
#1040=LINE('',#1277,#1278);
#1041=FILL_AREA_STYLE_COLOUR('',#1279);
#1042=LINE('',#1280,#1281);
#1043=LINE('',#1282,#1283);
#1044=VERTEX_POINT('',#1284);
#1045=VERTEX_POINT('',#1285);
#1046=LINE('',#1286,#1287);
#1047=VERTEX_POINT('',#1288);
#1048=LINE('',#1289,#1290);
#1049=VERTEX_POINT('',#1291);
#1050=LINE('',#1292,#1293);
#1051=LINE('',#1294,#1295);
#1052=FILL_AREA_STYLE_COLOUR('',#1296);
#1053=VERTEX_POINT('',#1297);
#1054=VERTEX_POINT('',#1298);
#1055=LINE('',#1299,#1300);
#1056=LINE('',#1301,#1302);
#1057=LINE('',#1303,#1304);
#1058=FILL_AREA_STYLE_COLOUR('',#1305);
#1059=VERTEX_POINT('',#1306);
#1060=LINE('',#1307,#1308);
#1061=VERTEX_POINT('',#1309);
#1062=LINE('',#1310,#1311);
#1063=LINE('',#1312,#1313);
#1064=FILL_AREA_STYLE_COLOUR('',#1314);
#1065=VERTEX_POINT('',#1315);
#1066=LINE('',#1316,#1317);
#1067=LINE('',#1318,#1319);
#1068=FILL_AREA_STYLE_COLOUR('',#1320);
#1069=VERTEX_POINT('',#1321);
#1070=LINE('',#1322,#1323);
#1071=LINE('',#1324,#1325);
#1072=FILL_AREA_STYLE_COLOUR('',#1326);
#1073=LINE('',#1327,#1328);
#1074=FILL_AREA_STYLE_COLOUR('',#1329);
#1075=VERTEX_POINT('',#1330);
#1076=CIRCLE('',#1331,2.5);
#1077=FILL_AREA_STYLE_COLOUR('',#1332);
#1078=VERTEX_POINT('',#1333);
#1079=CIRCLE('',#1334,2.5);
#1080=FILL_AREA_STYLE_COLOUR('',#1335);
#1081=VERTEX_POINT('',#1336);
#1082=VERTEX_POINT('',#1337);
#1083=LINE('',#1338,#1339);
#1084=LINE('',#1340,#1341);
#1085=LINE('',#1342,#1343);
#1086=FILL_AREA_STYLE_COLOUR('',#1344);
#1087=VERTEX_POINT('',#1345);
#1088=LINE('',#1346,#1347);
#1089=LINE('',#1348,#1349);
#1090=FILL_AREA_STYLE_COLOUR('',#1350);
#1091=VERTEX_POINT('',#1351);
#1092=LINE('',#1352,#1353);
#1093=VERTEX_POINT('',#1354);
#1094=LINE('',#1355,#1356);
#1095=LINE('',#1357,#1358);
#1096=FILL_AREA_STYLE_COLOUR('',#1359);
#1097=LINE('',#1360,#1361);
#1098=FILL_AREA_STYLE_COLOUR('',#1362);
#1099=VERTEX_POINT('',#1363);
#1100=LINE('',#1364,#1365);
#1101=VERTEX_POINT('',#1366);
#1102=LINE('',#1367,#1368);
#1103=VERTEX_POINT('',#1369);
#1104=LINE('',#1370,#1371);
#1105=LINE('',#1372,#1373);
#1106=VERTEX_POINT('',#1374);
#1107=LINE('',#1375,#1376);
#1108=VERTEX_POINT('',#1377);
#1109=LINE('',#1378,#1379);
#1110=LINE('',#1380,#1381);
#1111=FILL_AREA_STYLE_COLOUR('',#1382);
#1112=LINE('',#1383,#1384);
#1113=FILL_AREA_STYLE_COLOUR('',#1385);
#1114=LINE('',#1386,#1387);
#1115=LINE('',#1388,#1389);
#1116=FILL_AREA_STYLE_COLOUR('',#1390);
#1117=LINE('',#1391,#1392);
#1118=FILL_AREA_STYLE_COLOUR('',#1393);
#1119=FILL_AREA_STYLE_COLOUR('',#1394);
#1120=VERTEX_POINT('',#1395);
#1121=LINE('',#1396,#1397);
#1122=VERTEX_POINT('',#1398);
#1123=LINE('',#1399,#1400);
#1124=LINE('',#1401,#1402);
#1125=FILL_AREA_STYLE_COLOUR('',#1403);
#1126=VERTEX_POINT('',#1404);
#1127=LINE('',#1405,#1406);
#1128=CIRCLE('',#1407,0.6);
#1129=FILL_AREA_STYLE_COLOUR('',#1408);
#1130=VERTEX_POINT('',#1409);
#1131=LINE('',#1410,#1411);
#1132=LINE('',#1412,#1413);
#1133=FILL_AREA_STYLE_COLOUR('',#1414);
#1134=CIRCLE('',#1415,0.6);
#1135=FILL_AREA_STYLE_COLOUR('',#1416);
#1136=FILL_AREA_STYLE_COLOUR('',#1417);
#1137=FILL_AREA_STYLE_COLOUR('',#1418);
#1138=LINE('',#1419,#1420);
#1139=FILL_AREA_STYLE_COLOUR('',#1421);
#1140=VERTEX_POINT('',#1422);
#1141=LINE('',#1423,#1424);
#1142=CIRCLE('',#1425,1.0);
#1143=FILL_AREA_STYLE_COLOUR('',#1426);
#1144=FILL_AREA_STYLE_COLOUR('',#1427);
#1145=LINE('',#1428,#1429);
#1146=FILL_AREA_STYLE_COLOUR('',#1430);
#1147=FILL_AREA_STYLE_COLOUR('',#1431);
#1148=FILL_AREA_STYLE_COLOUR('',#1432);
#1149=VERTEX_POINT('',#1433);
#1150=LINE('',#1434,#1435);
#1151=CIRCLE('',#1436,1.0);
#1152=FILL_AREA_STYLE_COLOUR('',#1437);
#1153=LINE('',#1438,#1439);
#1154=FILL_AREA_STYLE_COLOUR('',#1440);
#1155=LINE('',#1441,#1442);
#1156=FILL_AREA_STYLE_COLOUR('',#1443);
#1157=COLOUR_RGB('',0.498039215803146,0.498039215803146,0.498039215803146);
#1158=CARTESIAN_POINT('',(-3.81,5.0,0.0));
#1159=CARTESIAN_POINT('',(-3.81,-5.0,0.0));
#1160=CARTESIAN_POINT('',(-3.81,5.0,0.0));
#1161=VECTOR('',#1444,1.0);
#1162=CARTESIAN_POINT('',(3.81,5.0,0.0));
#1163=CARTESIAN_POINT('',(3.81,5.0,0.0));
#1164=VECTOR('',#1445,1.0);
#1165=CARTESIAN_POINT('',(3.81,-5.0,0.0));
#1166=CARTESIAN_POINT('',(3.81,-5.0,0.0));
#1167=VECTOR('',#1446,1.0);
#1168=CARTESIAN_POINT('',(-3.81,-5.0,0.0));
#1169=VECTOR('',#1447,1.0);
#1170=CARTESIAN_POINT('',(-0.6,-4.00000000009095,0.0));
#1171=CARTESIAN_POINT('',(-0.6,-3.20000000009095,0.0));
#1172=CARTESIAN_POINT('',(-0.6,-4.00000000009095,0.0));
#1173=VECTOR('',#1448,1.0);
#1174=CARTESIAN_POINT('',(0.6,-4.00000000009095,0.0));
#1175=CARTESIAN_POINT('',(0.6,-4.00000000009095,0.0));
#1176=VECTOR('',#1449,1.0);
#1177=CARTESIAN_POINT('',(0.6,-3.20000000009095,0.0));
#1178=CARTESIAN_POINT('',(0.6,-3.20000000009095,0.0));
#1179=VECTOR('',#1450,1.0);
#1180=CARTESIAN_POINT('',(-0.6,-3.20000000009095,0.0));
#1181=VECTOR('',#1451,1.0);
#1182=COLOUR_RGB('',0.752941191196442,0.752941191196442,0.752941191196442);
#1183=CARTESIAN_POINT('',(2.0,-8.67361737988404E-16,8.4));
#1184=AXIS2_PLACEMENT_3D('',#1452,#1453,#1454);
#1185=CARTESIAN_POINT('',(1.5,0.5,8.4));
#1186=CARTESIAN_POINT('',(1.5,-0.5,8.4));
#1187=CARTESIAN_POINT('',(1.5,0.5,8.4));
#1188=VECTOR('',#1455,1.0);
#1189=CARTESIAN_POINT('',(0.5,-0.5,8.4));
#1190=CARTESIAN_POINT('',(1.5,-0.5,8.4));
#1191=VECTOR('',#1456,1.0);
#1192=CARTESIAN_POINT('',(0.5,-1.5,8.4));
#1193=CARTESIAN_POINT('',(0.5,1.5,8.4));
#1194=VECTOR('',#1457,1.0);
#1195=CARTESIAN_POINT('',(-0.5,-1.5,8.4));
#1196=CARTESIAN_POINT('',(0.5,-1.5,8.4));
#1197=VECTOR('',#1458,1.0);
#1198=CARTESIAN_POINT('',(-0.5,-0.5,8.4));
#1199=CARTESIAN_POINT('',(-0.5,-1.5,8.4));
#1200=VECTOR('',#1459,1.0);
#1201=CARTESIAN_POINT('',(-1.5,-0.5,8.4));
#1202=CARTESIAN_POINT('',(1.5,-0.5,8.4));
#1203=VECTOR('',#1460,1.0);
#1204=CARTESIAN_POINT('',(-1.5,0.5,8.4));
#1205=CARTESIAN_POINT('',(-1.5,-0.5,8.4));
#1206=VECTOR('',#1461,1.0);
#1207=CARTESIAN_POINT('',(-0.5,0.5,8.4));
#1208=CARTESIAN_POINT('',(-1.5,0.5,8.4));
#1209=VECTOR('',#1462,1.0);
#1210=CARTESIAN_POINT('',(-0.5,1.5,8.4));
#1211=CARTESIAN_POINT('',(-0.5,-1.5,8.4));
#1212=VECTOR('',#1463,1.0);
#1213=CARTESIAN_POINT('',(0.5,1.5,8.4));
#1214=CARTESIAN_POINT('',(-0.5,1.5,8.4));
#1215=VECTOR('',#1464,1.0);
#1216=CARTESIAN_POINT('',(0.5,0.5,8.4));
#1217=CARTESIAN_POINT('',(0.5,1.5,8.4));
#1218=VECTOR('',#1465,1.0);
#1219=CARTESIAN_POINT('',(-1.5,0.5,8.4));
#1220=VECTOR('',#1466,1.0);
#1221=COLOUR_RGB('',0.498039215803146,0.498039215803146,0.498039215803146);
#1222=CARTESIAN_POINT('',(3.21,-4.0,6.0));
#1223=CARTESIAN_POINT('',(3.21,4.0,6.0));
#1224=CARTESIAN_POINT('',(3.21,-4.0,6.0));
#1225=VECTOR('',#1467,1.0);
#1226=CARTESIAN_POINT('',(3.21,-4.0,10.3999999999262));
#1227=CARTESIAN_POINT('',(3.21,-4.0,4.0));
#1228=VECTOR('',#1468,1.0);
#1229=CARTESIAN_POINT('',(3.21,4.0,10.4));
#1230=CARTESIAN_POINT('',(3.21,6.25,10.4));
#1231=VECTOR('',#1469,1.0);
#1232=CARTESIAN_POINT('',(3.21,5.0,9.4));
#1233=AXIS2_PLACEMENT_3D('',#1470,#1471,#1472);
#1234=CARTESIAN_POINT('',(3.21,5.0,5.0));
#1235=CARTESIAN_POINT('',(3.21,5.0,10.4));
#1236=VECTOR('',#1473,1.0);
#1237=CARTESIAN_POINT('',(3.21,6.125,3.875));
#1238=VECTOR('',#1474,1.0);
#1239=COLOUR_RGB('',0.498039215803146,0.498039215803146,0.498039215803146);
#1240=CARTESIAN_POINT('',(-3.21,-4.0,10.3999999999262));
#1241=CARTESIAN_POINT('',(-3.21,4.0,10.4));
#1242=CARTESIAN_POINT('',(-3.21,-6.25,10.4));
#1243=VECTOR('',#1475,1.0);
#1244=CARTESIAN_POINT('',(-3.21,-4.0,6.0));
#1245=CARTESIAN_POINT('',(-3.21,-4.0,4.0));
#1246=VECTOR('',#1476,1.0);
#1247=CARTESIAN_POINT('',(-3.21,4.0,6.0));
#1248=CARTESIAN_POINT('',(-3.21,4.0,6.0));
#1249=VECTOR('',#1477,1.0);
#1250=CARTESIAN_POINT('',(-3.21,5.0,5.0));
#1251=CARTESIAN_POINT('',(-3.21,-0.124999999999934,10.125));
#1252=VECTOR('',#1478,1.0);
#1253=CARTESIAN_POINT('',(-3.21,5.0,9.4));
#1254=CARTESIAN_POINT('',(-3.21,5.0,10.4));
#1255=VECTOR('',#1479,1.0);
#1256=AXIS2_PLACEMENT_3D('',#1480,#1481,#1482);
#1257=COLOUR_RGB('',0.498039215803146,0.498039215803146,0.498039215803146);
#1258=CARTESIAN_POINT('',(3.81,4.0,10.4));
#1259=CARTESIAN_POINT('',(-3.81,4.0,10.4));
#1260=VECTOR('',#1483,1.0);
#1261=CARTESIAN_POINT('',(3.81000000002601,-4.0,10.3999999999262));
#1262=VECTOR('',#1484,1.0);
#1263=CARTESIAN_POINT('',(-3.81,4.0,10.4));
#1264=CARTESIAN_POINT('',(-3.81,4.0,10.4));
#1265=VECTOR('',#1485,1.0);
#1266=CARTESIAN_POINT('',(-3.81000000002601,-4.99999999998955,10.3999999999262));
#1267=CARTESIAN_POINT('',(-3.81,5.0,10.4));
#1268=VECTOR('',#1486,1.0);
#1269=CARTESIAN_POINT('',(3.81000000002601,-4.99999999998955,10.3999999999262));
#1270=CARTESIAN_POINT('',(-3.81000000002601,-4.99999999998955,10.3999999999262));
#1271=VECTOR('',#1487,1.0);
#1272=CARTESIAN_POINT('',(3.81,-5.0,10.4));
#1273=VECTOR('',#1488,1.0);
#1274=COLOUR_RGB('',0.498039215803146,0.498039215803146,0.498039215803146);
#1275=CARTESIAN_POINT('',(-3.81,-5.0,10.4));
#1276=VECTOR('',#1489,1.0);
#1277=CARTESIAN_POINT('',(3.81,-5.0,10.4));
#1278=VECTOR('',#1490,1.0);
#1279=COLOUR_RGB('',0.498039215803146,0.498039215803146,0.498039215803146);
#1280=CARTESIAN_POINT('',(-3.21,-4.0,6.0));
#1281=VECTOR('',#1491,1.0);
#1282=CARTESIAN_POINT('',(3.21,4.0,6.0));
#1283=VECTOR('',#1492,1.0);
#1284=CARTESIAN_POINT('',(-3.0,-3.0,6.0));
#1285=CARTESIAN_POINT('',(3.0,-3.0,6.0));
#1286=CARTESIAN_POINT('',(-3.0,-3.0,6.0));
#1287=VECTOR('',#1493,1.0);
#1288=CARTESIAN_POINT('',(-3.0,3.0,6.0));
#1289=CARTESIAN_POINT('',(-3.0,3.0,6.0));
#1290=VECTOR('',#1494,1.0);
#1291=CARTESIAN_POINT('',(3.0,3.0,6.0));
#1292=CARTESIAN_POINT('',(3.0,3.0,6.0));
#1293=VECTOR('',#1495,1.0);
#1294=CARTESIAN_POINT('',(3.0,-3.0,6.0));
#1295=VECTOR('',#1496,1.0);
#1296=COLOUR_RGB('',0.752941191196442,0.752941191196442,0.752941191196442);
#1297=CARTESIAN_POINT('',(0.5,1.5,7.4));
#1298=CARTESIAN_POINT('',(0.5,0.5,7.4));
#1299=CARTESIAN_POINT('',(0.5,1.5,7.4));
#1300=VECTOR('',#1497,1.0);
#1301=CARTESIAN_POINT('',(0.5,0.5,7.4));
#1302=VECTOR('',#1498,1.0);
#1303=CARTESIAN_POINT('',(0.5,1.5,7.4));
#1304=VECTOR('',#1499,1.0);
#1305=COLOUR_RGB('',0.498039215803146,0.498039215803146,0.498039215803146);
#1306=CARTESIAN_POINT('',(-3.0,-3.0,7.2));
#1307=CARTESIAN_POINT('',(-3.0,-3.0,7.2));
#1308=VECTOR('',#1500,1.0);
#1309=CARTESIAN_POINT('',(-3.0,3.0,7.2));
#1310=CARTESIAN_POINT('',(-3.0,3.0,7.2));
#1311=VECTOR('',#1501,1.0);
#1312=CARTESIAN_POINT('',(-3.0,3.0,7.2));
#1313=VECTOR('',#1502,1.0);
#1314=COLOUR_RGB('',0.752941191196442,0.752941191196442,0.752941191196442);
#1315=CARTESIAN_POINT('',(3.0,-3.0,7.2));
#1316=CARTESIAN_POINT('',(3.0,-3.0,7.2));
#1317=VECTOR('',#1503,1.0);
#1318=CARTESIAN_POINT('',(-3.0,-3.0,7.2));
#1319=VECTOR('',#1504,1.0);
#1320=COLOUR_RGB('',0.498039215803146,0.498039215803146,0.498039215803146);
#1321=CARTESIAN_POINT('',(3.0,3.0,7.2));
#1322=CARTESIAN_POINT('',(3.0,3.0,7.2));
#1323=VECTOR('',#1505,1.0);
#1324=CARTESIAN_POINT('',(3.0,-3.0,7.2));
#1325=VECTOR('',#1506,1.0);
#1326=COLOUR_RGB('',0.752941191196442,0.752941191196442,0.752941191196442);
#1327=CARTESIAN_POINT('',(3.0,3.0,7.2));
#1328=VECTOR('',#1507,1.0);
#1329=COLOUR_RGB('',0.752941191196442,0.752941191196442,0.752941191196442);
#1330=CARTESIAN_POINT('',(2.5,-8.67361737988404E-16,7.2));
#1331=AXIS2_PLACEMENT_3D('',#1508,#1509,#1510);
#1332=COLOUR_RGB('',0.752941191196442,0.752941191196442,0.752941191196442);
#1333=CARTESIAN_POINT('',(2.5,-8.67361737988404E-16,7.9));
#1334=AXIS2_PLACEMENT_3D('',#1511,#1512,#1513);
#1335=COLOUR_RGB('',0.752941191196442,0.752941191196442,0.752941191196442);
#1336=CARTESIAN_POINT('',(-0.5,-1.5,7.4));
#1337=CARTESIAN_POINT('',(-0.5,-0.5,7.4));
#1338=CARTESIAN_POINT('',(-0.5,-1.5,7.4));
#1339=VECTOR('',#1514,1.0);
#1340=CARTESIAN_POINT('',(-0.5,-0.5,7.4));
#1341=VECTOR('',#1515,1.0);
#1342=CARTESIAN_POINT('',(-0.5,-1.5,7.4));
#1343=VECTOR('',#1516,1.0);
#1344=COLOUR_RGB('',0.752941191196442,0.752941191196442,0.752941191196442);
#1345=CARTESIAN_POINT('',(-0.5,1.5,7.4));
#1346=CARTESIAN_POINT('',(-0.5,1.5,7.4));
#1347=VECTOR('',#1517,1.0);
#1348=CARTESIAN_POINT('',(-0.5,1.5,7.4));
#1349=VECTOR('',#1518,1.0);
#1350=COLOUR_RGB('',0.752941191196442,0.752941191196442,0.752941191196442);
#1351=CARTESIAN_POINT('',(0.5,-0.5,7.4));
#1352=CARTESIAN_POINT('',(0.5,-0.5,7.4));
#1353=VECTOR('',#1519,1.0);
#1354=CARTESIAN_POINT('',(0.5,-1.5,7.4));
#1355=CARTESIAN_POINT('',(0.5,1.5,7.4));
#1356=VECTOR('',#1520,1.0);
#1357=CARTESIAN_POINT('',(0.5,-1.5,7.4));
#1358=VECTOR('',#1521,1.0);
#1359=COLOUR_RGB('',0.752941191196442,0.752941191196442,0.752941191196442);
#1360=CARTESIAN_POINT('',(0.5,-1.5,7.4));
#1361=VECTOR('',#1522,1.0);
#1362=COLOUR_RGB('',0.752941191196442,0.752941191196442,0.752941191196442);
#1363=CARTESIAN_POINT('',(-0.5,0.5,7.4));
#1364=CARTESIAN_POINT('',(-0.5,-1.5,7.4));
#1365=VECTOR('',#1523,1.0);
#1366=CARTESIAN_POINT('',(-1.5,0.5,7.4));
#1367=CARTESIAN_POINT('',(-1.5,0.5,7.4));
#1368=VECTOR('',#1524,1.0);
#1369=CARTESIAN_POINT('',(-1.5,-0.5,7.4));
#1370=CARTESIAN_POINT('',(-1.5,-0.5,7.4));
#1371=VECTOR('',#1525,1.0);
#1372=CARTESIAN_POINT('',(1.5,-0.5,7.4));
#1373=VECTOR('',#1526,1.0);
#1374=CARTESIAN_POINT('',(1.5,-0.5,7.4));
#1375=CARTESIAN_POINT('',(1.5,-0.5,7.4));
#1376=VECTOR('',#1527,1.0);
#1377=CARTESIAN_POINT('',(1.5,0.5,7.4));
#1378=CARTESIAN_POINT('',(1.5,0.5,7.4));
#1379=VECTOR('',#1528,1.0);
#1380=CARTESIAN_POINT('',(-1.5,0.5,7.4));
#1381=VECTOR('',#1529,1.0);
#1382=COLOUR_RGB('',0.752941191196442,0.752941191196442,0.752941191196442);
#1383=CARTESIAN_POINT('',(1.5,-0.5,7.4));
#1384=VECTOR('',#1530,1.0);
#1385=COLOUR_RGB('',0.752941191196442,0.752941191196442,0.752941191196442);
#1386=CARTESIAN_POINT('',(-1.5,-0.5,7.4));
#1387=VECTOR('',#1531,1.0);
#1388=CARTESIAN_POINT('',(-1.5,0.5,7.4));
#1389=VECTOR('',#1532,1.0);
#1390=COLOUR_RGB('',0.752941191196442,0.752941191196442,0.752941191196442);
#1391=CARTESIAN_POINT('',(1.5,0.5,7.4));
#1392=VECTOR('',#1533,1.0);
#1393=COLOUR_RGB('',0.752941191196442,0.752941191196442,0.752941191196442);
#1394=COLOUR_RGB('',1.0,0.501960813999176,0.0);
#1395=CARTESIAN_POINT('',(-0.6,-3.20000000009095,-3.4));
#1396=CARTESIAN_POINT('',(-0.6,-3.20000000009095,-4.0));
#1397=VECTOR('',#1534,1.0);
#1398=CARTESIAN_POINT('',(-0.6,-4.00000000009095,-3.4));
#1399=CARTESIAN_POINT('',(-0.6,-4.00000000009095,-3.4));
#1400=VECTOR('',#1535,1.0);
#1401=CARTESIAN_POINT('',(-0.6,-4.00000000009095,-4.0));
#1402=VECTOR('',#1536,1.0);
#1403=COLOUR_RGB('',1.0,0.501960813999176,0.0);
#1404=CARTESIAN_POINT('',(0.6,-3.20000000009095,-3.4));
#1405=CARTESIAN_POINT('',(0.6,-3.20000000009095,-4.0));
#1406=VECTOR('',#1537,1.0);
#1407=AXIS2_PLACEMENT_3D('',#1538,#1539,#1540);
#1408=COLOUR_RGB('',1.0,0.501960813999176,0.0);
#1409=CARTESIAN_POINT('',(0.6,-4.00000000009095,-3.4));
#1410=CARTESIAN_POINT('',(0.6,-4.00000000009095,-4.0));
#1411=VECTOR('',#1541,1.0);
#1412=CARTESIAN_POINT('',(0.6,-3.20000000009095,-3.4));
#1413=VECTOR('',#1542,1.0);
#1414=COLOUR_RGB('',1.0,0.501960813999176,0.0);
#1415=AXIS2_PLACEMENT_3D('',#1543,#1544,#1545);
#1416=COLOUR_RGB('',0.498039215803146,0.498039215803146,0.498039215803146);
#1417=COLOUR_RGB('',1.0,0.501960813999176,0.0);
#1418=COLOUR_RGB('',0.498039215803146,0.498039215803146,0.498039215803146);
#1419=CARTESIAN_POINT('',(3.81,5.0,5.0));
#1420=VECTOR('',#1546,1.0);
#1421=COLOUR_RGB('',0.498039215803146,0.498039215803146,0.498039215803146);
#1422=CARTESIAN_POINT('',(3.81,5.0,9.4));
#1423=CARTESIAN_POINT('',(3.81,5.0,10.4));
#1424=VECTOR('',#1547,1.0);
#1425=AXIS2_PLACEMENT_3D('',#1548,#1549,#1550);
#1426=COLOUR_RGB('',0.752941191196442,0.752941191196442,0.752941191196442);
#1427=COLOUR_RGB('',0.752941191196442,0.752941191196442,0.752941191196442);
#1428=CARTESIAN_POINT('',(-0.5,0.5,7.4));
#1429=VECTOR('',#1551,1.0);
#1430=COLOUR_RGB('',0.752941191196442,0.752941191196442,0.752941191196442);
#1431=COLOUR_RGB('',0.752941191196442,0.752941191196442,0.752941191196442);
#1432=COLOUR_RGB('',0.498039215803146,0.498039215803146,0.498039215803146);
#1433=CARTESIAN_POINT('',(-3.81,5.0,9.4));
#1434=CARTESIAN_POINT('',(3.81,5.0,9.4));
#1435=VECTOR('',#1552,1.0);
#1436=AXIS2_PLACEMENT_3D('',#1553,#1554,#1555);
#1437=COLOUR_RGB('',0.498039215803146,0.498039215803146,0.498039215803146);
#1438=CARTESIAN_POINT('',(3.81,5.0,9.4));
#1439=VECTOR('',#1556,1.0);
#1440=COLOUR_RGB('',0.498039215803146,0.498039215803146,0.498039215803146);
#1441=CARTESIAN_POINT('',(-3.81,5.0,10.4));
#1442=VECTOR('',#1557,1.0);
#1443=COLOUR_RGB('',0.498039215803146,0.498039215803146,0.498039215803146);
#1444=DIRECTION('',(0.0,-1.0,0.0));
#1445=DIRECTION('',(-1.0,0.0,0.0));
#1446=DIRECTION('',(0.0,1.0,0.0));
#1447=DIRECTION('',(1.0,0.0,0.0));
#1448=DIRECTION('',(0.0,1.0,0.0));
#1449=DIRECTION('',(-1.0,0.0,0.0));
#1450=DIRECTION('',(0.0,-1.0,0.0));
#1451=DIRECTION('',(1.0,0.0,0.0));
#1452=CARTESIAN_POINT('',(0.0,-8.67361737988404E-16,8.4));
#1453=DIRECTION('',(0.0,0.0,1.0));
#1454=DIRECTION('',(1.0,0.0,0.0));
#1455=DIRECTION('',(0.0,-1.0,0.0));
#1456=DIRECTION('',(-1.0,0.0,0.0));
#1457=DIRECTION('',(0.0,-1.0,0.0));
#1458=DIRECTION('',(-1.0,0.0,0.0));
#1459=DIRECTION('',(0.0,1.0,0.0));
#1460=DIRECTION('',(-1.0,0.0,0.0));
#1461=DIRECTION('',(0.0,1.0,0.0));
#1462=DIRECTION('',(1.0,0.0,0.0));
#1463=DIRECTION('',(0.0,1.0,0.0));
#1464=DIRECTION('',(1.0,0.0,0.0));
#1465=DIRECTION('',(0.0,-1.0,0.0));
#1466=DIRECTION('',(1.0,0.0,0.0));
#1467=DIRECTION('',(0.0,1.0,0.0));
#1468=DIRECTION('',(0.0,0.0,1.0));
#1469=DIRECTION('',(0.0,-1.0,0.0));
#1470=CARTESIAN_POINT('',(3.21,4.0,9.4));
#1471=DIRECTION('',(-1.0,0.0,0.0));
#1472=DIRECTION('',(0.0,0.0,1.0));
#1473=DIRECTION('',(0.0,0.0,-1.0));
#1474=DIRECTION('',(0.0,0.707106781186544,-0.707106781186551));
#1475=DIRECTION('',(0.0,1.0,0.0));
#1476=DIRECTION('',(0.0,0.0,-1.0));
#1477=DIRECTION('',(0.0,-1.0,0.0));
#1478=DIRECTION('',(0.0,-0.707106781186544,0.707106781186551));
#1479=DIRECTION('',(0.0,0.0,1.0));
#1480=CARTESIAN_POINT('',(-3.21,4.0,9.4));
#1481=DIRECTION('',(1.0,0.0,0.0));
#1482=DIRECTION('',(0.0,0.0,-1.0));
#1483=DIRECTION('',(-1.0,0.0,0.0));
#1484=DIRECTION('',(-1.0,0.0,0.0));
#1485=DIRECTION('',(-1.0,0.0,0.0));
#1486=DIRECTION('',(0.0,-1.0,0.0));
#1487=DIRECTION('',(1.0,0.0,0.0));
#1488=DIRECTION('',(0.0,1.0,0.0));
#1489=DIRECTION('',(0.0,0.0,-1.0));
#1490=DIRECTION('',(0.0,0.0,-1.0));
#1491=DIRECTION('',(1.0,0.0,0.0));
#1492=DIRECTION('',(-1.0,0.0,0.0));
#1493=DIRECTION('',(1.0,0.0,0.0));
#1494=DIRECTION('',(0.0,-1.0,0.0));
#1495=DIRECTION('',(-1.0,0.0,0.0));
#1496=DIRECTION('',(0.0,1.0,0.0));
#1497=DIRECTION('',(0.0,-1.0,0.0));
#1498=DIRECTION('',(0.0,0.0,1.0));
#1499=DIRECTION('',(0.0,0.0,1.0));
#1500=DIRECTION('',(0.0,0.0,-1.0));
#1501=DIRECTION('',(0.0,-1.0,0.0));
#1502=DIRECTION('',(0.0,0.0,-1.0));
#1503=DIRECTION('',(0.0,0.0,-1.0));
#1504=DIRECTION('',(1.0,0.0,0.0));
#1505=DIRECTION('',(0.0,0.0,-1.0));
#1506=DIRECTION('',(0.0,1.0,0.0));
#1507=DIRECTION('',(-1.0,0.0,0.0));
#1508=CARTESIAN_POINT('',(0.0,-8.67361737988404E-16,7.2));
#1509=DIRECTION('',(0.0,0.0,1.0));
#1510=DIRECTION('',(1.0,0.0,0.0));
#1511=CARTESIAN_POINT('',(0.0,-8.67361737988404E-16,7.9));
#1512=DIRECTION('',(0.0,0.0,1.0));
#1513=DIRECTION('',(1.0,0.0,0.0));
#1514=DIRECTION('',(0.0,1.0,0.0));
#1515=DIRECTION('',(0.0,0.0,1.0));
#1516=DIRECTION('',(0.0,0.0,1.0));
#1517=DIRECTION('',(0.0,0.0,1.0));
#1518=DIRECTION('',(1.0,0.0,0.0));
#1519=DIRECTION('',(0.0,0.0,-1.0));
#1520=DIRECTION('',(0.0,-1.0,0.0));
#1521=DIRECTION('',(0.0,0.0,1.0));
#1522=DIRECTION('',(-1.0,0.0,0.0));
#1523=DIRECTION('',(0.0,1.0,0.0));
#1524=DIRECTION('',(1.0,0.0,0.0));
#1525=DIRECTION('',(0.0,1.0,0.0));
#1526=DIRECTION('',(-1.0,0.0,0.0));
#1527=DIRECTION('',(-1.0,0.0,0.0));
#1528=DIRECTION('',(0.0,-1.0,0.0));
#1529=DIRECTION('',(1.0,0.0,0.0));
#1530=DIRECTION('',(0.0,0.0,1.0));
#1531=DIRECTION('',(0.0,0.0,1.0));
#1532=DIRECTION('',(0.0,0.0,1.0));
#1533=DIRECTION('',(0.0,0.0,1.0));
#1534=DIRECTION('',(0.0,0.0,1.0));
#1535=DIRECTION('',(0.0,1.0,0.0));
#1536=DIRECTION('',(0.0,0.0,1.0));
#1537=DIRECTION('',(0.0,0.0,1.0));
#1538=CARTESIAN_POINT('',(1.0842021724855E-16,-3.20000000009095,-3.4));
#1539=DIRECTION('',(0.0,-1.0,0.0));
#1540=DIRECTION('',(0.0,0.0,-1.0));
#1541=DIRECTION('',(0.0,0.0,1.0));
#1542=DIRECTION('',(0.0,-1.0,0.0));
#1543=CARTESIAN_POINT('',(1.0842021724855E-16,-4.00000000009095,-3.4));
#1544=DIRECTION('',(0.0,1.0,0.0));
#1545=DIRECTION('',(0.0,0.0,1.0));
#1546=DIRECTION('',(-1.0,0.0,0.0));
#1547=DIRECTION('',(0.0,0.0,-1.0));
#1548=CARTESIAN_POINT('',(3.81,4.0,9.4));
#1549=DIRECTION('',(-1.0,0.0,0.0));
#1550=DIRECTION('',(0.0,0.0,1.0));
#1551=DIRECTION('',(0.0,0.0,-1.0));
#1552=DIRECTION('',(-1.0,0.0,0.0));
#1553=CARTESIAN_POINT('',(-3.81,4.0,9.4));
#1554=DIRECTION('',(1.0,0.0,0.0));
#1555=DIRECTION('',(0.0,0.0,-1.0));
#1556=DIRECTION('',(-1.0,0.0,0.0));
#1557=DIRECTION('',(0.0,0.0,-1.0));
ENDSEC;
END-ISO-10303-21;
